Hardware/Uart/Quartus/simulation/qsim/UartT.msim.vcd
$comment
	File created using the following command:
		vcd file UartT.msim.vcd -direction
$end
$date
	Thu Jul 01 17:15:08 2021
$end
$version
	ModelSim Version 2020.1
$end
$timescale
	1ps
$end

$scope module Uart_vlg_vec_tst $end
$var reg 1 ! Clock $end
$var reg 1 " Reset $end
$var reg 1 # Rx $end
$var reg 1 $ TxInit $end
$var wire 1 % RxAvailable $end
$var wire 1 & RxData [7] $end
$var wire 1 ' RxData [6] $end
$var wire 1 ( RxData [5] $end
$var wire 1 ) RxData [4] $end
$var wire 1 * RxData [3] $end
$var wire 1 + RxData [2] $end
$var wire 1 , RxData [1] $end
$var wire 1 - RxData [0] $end
$var wire 1 . Tx $end
$var wire 1 / TxDone $end

$scope module i1 $end
$var wire 1 0 gnd $end
$var wire 1 1 vcc $end
$var wire 1 2 unknown $end
$var tri1 1 3 devclrn $end
$var tri1 1 4 devpor $end
$var tri1 1 5 devoe $end
$var wire 1 6 Rx~input_o $end
$var wire 1 7 RxData[0]~output_o $end
$var wire 1 8 RxData[1]~output_o $end
$var wire 1 9 RxData[2]~output_o $end
$var wire 1 : RxData[3]~output_o $end
$var wire 1 ; RxData[4]~output_o $end
$var wire 1 < RxData[5]~output_o $end
$var wire 1 = RxData[6]~output_o $end
$var wire 1 > RxData[7]~output_o $end
$var wire 1 ? Tx~output_o $end
$var wire 1 @ TxDone~output_o $end
$var wire 1 A RxAvailable~output_o $end
$var wire 1 B Reset~input_o $end
$var wire 1 C Clock~input_o $end
$var wire 1 D Clock~inputclkctrl_outclk $end
$var wire 1 E Baud|Contador[0]~16_combout $end
$var wire 1 F Baud|Contador[13]~18_combout $end
$var wire 1 G Baud|Contador[0]~17 $end
$var wire 1 H Baud|Contador[1]~19_combout $end
$var wire 1 I Baud|Contador[1]~20 $end
$var wire 1 J Baud|Contador[2]~21_combout $end
$var wire 1 K Baud|Contador[2]~22 $end
$var wire 1 L Baud|Contador[3]~23_combout $end
$var wire 1 M Baud|Contador[3]~24 $end
$var wire 1 N Baud|Contador[4]~25_combout $end
$var wire 1 O Baud|Contador[4]~26 $end
$var wire 1 P Baud|Contador[5]~27_combout $end
$var wire 1 Q Baud|Contador[5]~28 $end
$var wire 1 R Baud|Contador[6]~29_combout $end
$var wire 1 S Baud|Contador[6]~30 $end
$var wire 1 T Baud|Contador[7]~31_combout $end
$var wire 1 U Baud|Contador[7]~32 $end
$var wire 1 V Baud|Contador[8]~33_combout $end
$var wire 1 W Baud|Contador[8]~34 $end
$var wire 1 X Baud|Contador[9]~35_combout $end
$var wire 1 Y Baud|Contador[9]~36 $end
$var wire 1 Z Baud|Contador[10]~37_combout $end
$var wire 1 [ Baud|Contador[10]~38 $end
$var wire 1 \ Baud|Contador[11]~39_combout $end
$var wire 1 ] Baud|Equal0~2_combout $end
$var wire 1 ^ Baud|Equal0~0_combout $end
$var wire 1 _ Baud|Equal0~1_combout $end
$var wire 1 ` Baud|Contador[11]~40 $end
$var wire 1 a Baud|Contador[12]~41_combout $end
$var wire 1 b Baud|Contador[12]~42 $end
$var wire 1 c Baud|Contador[13]~43_combout $end
$var wire 1 d Baud|Contador[13]~44 $end
$var wire 1 e Baud|Contador[14]~45_combout $end
$var wire 1 f Baud|Contador[14]~46 $end
$var wire 1 g Baud|Contador[15]~47_combout $end
$var wire 1 h Baud|Equal0~3_combout $end
$var wire 1 i Baud|Equal0~4_combout $end
$var wire 1 j Baud|ClockBAUD~0_combout $end
$var wire 1 k Baud|ClockBAUD~q $end
$var wire 1 l Receive|VarClock~combout $end
$var wire 1 m Receive|VarClock~clkctrl_outclk $end
$var wire 1 n Receive|Selector3~0_combout $end
$var wire 1 o Receive|Selector4~0_combout $end
$var wire 1 p Receive|Selector2~0_combout $end
$var wire 1 q Receive|Selector3~1_combout $end
$var wire 1 r Receive|Equal0~1_combout $end
$var wire 1 s Receive|Selector2~1_combout $end
$var wire 1 t Receive|Selector1~0_combout $end
$var wire 1 u Receive|Selector1~1_combout $end
$var wire 1 v Receive|Equal0~0_combout $end
$var wire 1 w Receive|Status~19_combout $end
$var wire 1 x Receive|Selector6~0_combout $end
$var wire 1 y Receive|Status~20_combout $end
$var wire 1 z Receive|Status~21_combout $end
$var wire 1 { Receive|Status.START~q $end
$var wire 1 | Receive|Selector0~0_combout $end
$var wire 1 } Receive|Sync~q $end
$var wire 1 ~ Receive|Status~12_combout $end
$var wire 1 !! Receive|Status~18_combout $end
$var wire 1 "! Receive|Status.STOP~q $end
$var wire 1 #! Transmission|VarClock~combout $end
$var wire 1 $! Transmission|VarClock~clkctrl_outclk $end
$var wire 1 %! Transmission|Selector0~0_combout $end
$var wire 1 &! Transmission|Sync~q $end
$var wire 1 '! TxInit~input_o $end
$var wire 1 (! Transmission|Selector6~0_combout $end
$var wire 1 )! Transmission|Selector6~1_combout $end
$var wire 1 *! Transmission|TxDone~q $end
$var wire 1 +! Transmission|Status~14_combout $end
$var wire 1 ,! Transmission|Status~22_combout $end
$var wire 1 -! Transmission|Status.START~q $end
$var wire 1 .! Transmission|Status~15_combout $end
$var wire 1 /! Transmission|Status~16_combout $end
$var wire 1 0! Transmission|Status~17_combout $end
$var wire 1 1! Transmission|Status.DATA~q $end
$var wire 1 2! Transmission|Selector5~0_combout $end
$var wire 1 3! Transmission|Selector4~0_combout $end
$var wire 1 4! Transmission|Selector4~1_combout $end
$var wire 1 5! Transmission|Selector4~2_combout $end
$var wire 1 6! Transmission|Status~23_combout $end
$var wire 1 7! Transmission|Selector3~0_combout $end
$var wire 1 8! Transmission|Selector2~0_combout $end
$var wire 1 9! Transmission|Selector2~1_combout $end
$var wire 1 :! Transmission|Status~12_combout $end
$var wire 1 ;! Transmission|Status~13_combout $end
$var wire 1 <! Transmission|Status~18_combout $end
$var wire 1 =! Transmission|Status~19_combout $end
$var wire 1 >! Transmission|Status.STOP~q $end
$var wire 1 ?! Transmission|Status~20_combout $end
$var wire 1 @! Transmission|Status~21_combout $end
$var wire 1 A! Transmission|Status.WAIT~q $end
$var wire 1 B! Transmission|Selector16~0_combout $end
$var wire 1 C! Transmission|Data~6_combout $end
$var wire 1 D! Transmission|Data[6]~1_combout $end
$var wire 1 E! Transmission|Data[6]~2_combout $end
$var wire 1 F! Transmission|Data~5_combout $end
$var wire 1 G! Transmission|Selector14~0_combout $end
$var wire 1 H! Transmission|Data~4_combout $end
$var wire 1 I! Transmission|Selector16~1_combout $end
$var wire 1 J! Transmission|Data~3_combout $end
$var wire 1 K! Transmission|Data~0_combout $end
$var wire 1 L! Transmission|Selector1~0_combout $end
$var wire 1 M! Transmission|Selector1~1_combout $end
$var wire 1 N! Transmission|Tx~q $end
$var wire 1 O! Receive|Status~17_combout $end
$var wire 1 P! Receive|Status.WAIT~q $end
$var wire 1 Q! Receive|RxData[6]~1_combout $end
$var wire 1 R! Receive|Status~14_combout $end
$var wire 1 S! Receive|Status~15_combout $end
$var wire 1 T! Receive|Status~13_combout $end
$var wire 1 U! Receive|Status~16_combout $end
$var wire 1 V! Receive|Status.DATA~q $end
$var wire 1 W! Receive|Selector6~1_combout $end
$var wire 1 X! Receive|Selector6~2_combout $end
$var wire 1 Y! Receive|Selector6~3_combout $end
$var wire 1 Z! Receive|RxData~9_combout $end
$var wire 1 [! Receive|RxData[6]~2_combout $end
$var wire 1 \! Receive|RxData[6]~3_combout $end
$var wire 1 ]! Receive|RxData~8_combout $end
$var wire 1 ^! Receive|RxData~7_combout $end
$var wire 1 _! Receive|RxData~6_combout $end
$var wire 1 `! Receive|RxData~5_combout $end
$var wire 1 a! Receive|RxData~4_combout $end
$var wire 1 b! Receive|RxData~0_combout $end
$var wire 1 c! Receive|Selector5~0_combout $end
$var wire 1 d! Receive|Selector5~1_combout $end
$var wire 1 e! Receive|RxAvailable~q $end
$var wire 1 f! Receive|RxData [7] $end
$var wire 1 g! Receive|RxData [6] $end
$var wire 1 h! Receive|RxData [5] $end
$var wire 1 i! Receive|RxData [4] $end
$var wire 1 j! Receive|RxData [3] $end
$var wire 1 k! Receive|RxData [2] $end
$var wire 1 l! Receive|RxData [1] $end
$var wire 1 m! Receive|RxData [0] $end
$var wire 1 n! Receive|Dcounter [3] $end
$var wire 1 o! Receive|Dcounter [2] $end
$var wire 1 p! Receive|Dcounter [1] $end
$var wire 1 q! Receive|Dcounter [0] $end
$var wire 1 r! Transmission|Dcounter [3] $end
$var wire 1 s! Transmission|Dcounter [2] $end
$var wire 1 t! Transmission|Dcounter [1] $end
$var wire 1 u! Transmission|Dcounter [0] $end
$var wire 1 v! Baud|Contador [15] $end
$var wire 1 w! Baud|Contador [14] $end
$var wire 1 x! Baud|Contador [13] $end
$var wire 1 y! Baud|Contador [12] $end
$var wire 1 z! Baud|Contador [11] $end
$var wire 1 {! Baud|Contador [10] $end
$var wire 1 |! Baud|Contador [9] $end
$var wire 1 }! Baud|Contador [8] $end
$var wire 1 ~! Baud|Contador [7] $end
$var wire 1 !" Baud|Contador [6] $end
$var wire 1 "" Baud|Contador [5] $end
$var wire 1 #" Baud|Contador [4] $end
$var wire 1 $" Baud|Contador [3] $end
$var wire 1 %" Baud|Contador [2] $end
$var wire 1 &" Baud|Contador [1] $end
$var wire 1 '" Baud|Contador [0] $end
$var wire 1 (" Transmission|Data [7] $end
$var wire 1 )" Transmission|Data [6] $end
$var wire 1 *" Transmission|Data [5] $end
$var wire 1 +" Transmission|Data [4] $end
$var wire 1 ," Transmission|Data [3] $end
$var wire 1 -" Transmission|Data [2] $end
$var wire 1 ." Transmission|Data [1] $end
$var wire 1 /" Transmission|Data [0] $end
$upscope $end
$upscope $end
$enddefinitions $end
#0
$dumpvars
0!
1"
0#
1$
0%
0-
0,
0+
0*
0)
0(
0'
0&
0.
0/
00
11
x2
13
14
15
06
07
08
09
0:
0;
0<
0=
0>
0?
0@
0A
1B
0C
0D
1E
0F
0G
0H
1I
0J
0K
0L
1M
0N
0O
0P
1Q
0R
0S
0T
1U
0V
0W
0X
1Y
0Z
0[
0\
0]
1^
1_
1`
0a
0b
0c
1d
0e
0f
0g
0h
1i
0j
0k
0l
0m
0n
0o
0p
0q
1r
0s
0t
0u
1v
1w
0x
1y
1z
0{
0|
0}
0~
0!!
0"!
0#!
0$!
0%!
0&!
1'!
0(!
0)!
0*!
0+!
0,!
0-!
0.!
0/!
00!
01!
02!
03!
14!
05!
16!
07!
08!
09!
1:!
0;!
1<!
0=!
0>!
0?!
0@!
0A!
1B!
1C!
0D!
0E!
1F!
0G!
1H!
0I!
1J!
1K!
0L!
1M!
0N!
1O!
0P!
0Q!
0R!
0S!
0T!
0U!
0V!
0W!
0X!
0Y!
0Z!
0[!
1\!
0]!
0^!
0_!
0`!
0a!
0b!
0c!
0d!
0e!
0m!
0l!
0k!
0j!
0i!
0h!
0g!
0f!
0q!
0p!
0o!
0n!
0u!
0t!
0s!
0r!
0'"
0&"
0%"
0$"
0#"
0""
0!"
0~!
0}!
0|!
0{!
0z!
0y!
0x!
0w!
0v!
0/"
0."
0-"
0,"
0+"
0*"
0)"
z("
$end
#5000
1!
1C
1D
1'"
1G
0E
1H
#10000
0!
0C
0D
#15000
1!
1C
1D
1&"
0'"
0^
0I
0G
0H
1E
1I
1J
1H
0J
#20000
0!
0C
0D
#25000
1!
1C
1D
1'"
1^
1G
0E
0I
0H
1J
#30000
0!
0C
0D
#35000
1!
1C
1D
1%"
0&"
0'"
1K
1I
0G
0J
1H
1E
0K
1L
1J
0H
0L
#40000
0!
0C
0D
#45000
1!
1C
1D
1'"
1G
0E
1H
#50000
0!
0C
0D
#55000
1!
1C
1D
1&"
0'"
0I
0G
0H
1E
1K
1I
0J
1H
0K
1L
1J
0L
#60000
0!
0C
0D
#65000
1!
1C
1D
1'"
1G
0E
0I
0H
1K
0J
1L
#70000
0!
0C
0D
#75000
1!
1C
1D
1$"
0%"
0&"
0'"
0M
0K
1I
0G
0L
1J
1H
1E
1M
1N
1L
0J
0H
0N
#80000
0!
0C
0D
#85000
1!
1C
1D
1'"
1G
0E
1H
#90000
0!
0C
0D
#95000
1!
1C
1D
1&"
0'"
0I
0G
0H
1E
1I
1J
1H
0J
#100000
0!
0C
0D
#105000
1!
1C
1D
1'"
1G
0E
0I
0H
1J
#110000
0!
0C
0D
#115000
1!
1C
1D
1%"
0&"
0'"
1K
1I
0G
0J
1H
1E
0M
0K
0L
1J
0H
1M
1N
1L
0N
#120000
0!
0C
0D
#125000
1!
1C
1D
1'"
1G
0E
1H
#130000
0!
0C
0D
#135000
1!
1C
1D
1&"
0'"
0I
0G
0H
1E
1K
1I
0J
1H
0M
0K
0L
1J
1M
1N
1L
0N
#140000
0!
0C
0D
#145000
1!
1C
1D
1'"
1G
0E
0I
0H
1K
0J
0M
0L
1N
#150000
0!
0C
0D
#155000
1!
1C
1D
1#"
0$"
0%"
0&"
0'"
1O
1M
0K
1I
0G
0N
1L
1J
1H
1E
0O
1P
1N
0L
0J
0H
0P
#160000
0!
0C
0D
#165000
1!
1C
1D
1'"
1G
0E
1H
#170000
0!
0C
0D
#175000
1!
1C
1D
1&"
0'"
0^
0I
0G
0H
1E
1I
1J
1H
0J
#180000
0!
0C
0D
#185000
1!
1C
1D
1'"
1^
1G
0E
0I
0H
1J
#190000
0!
0C
0D
#195000
1!
1C
1D
1%"
0&"
0'"
1K
1I
0G
0J
1H
1E
0K
1L
1J
0H
0L
#200000
0!
0C
0D
#205000
1!
1C
1D
1'"
1G
0E
1H
#210000
0!
0C
0D
#215000
1!
1C
1D
1&"
0'"
0I
0G
0H
1E
1K
1I
0J
1H
0K
1L
1J
0L
#220000
0!
0C
0D
#225000
1!
1C
1D
1'"
1G
0E
0I
0H
1K
0J
1L
#230000
0!
0C
0D
#235000
1!
1C
1D
1$"
0%"
0&"
0'"
0M
0K
1I
0G
0L
1J
1H
1E
1O
1M
0N
1L
0J
0H
0O
1P
1N
0P
#240000
0!
0C
0D
#245000
1!
1C
1D
1'"
1G
0E
1H
#250000
0!
0C
0D
#255000
1!
1C
1D
1&"
0'"
0I
0G
0H
1E
1I
1J
1H
0J
#260000
0!
0C
0D
#265000
1!
1C
1D
1'"
1G
0E
0I
0H
1J
#270000
0!
0C
0D
#275000
1!
1C
1D
1%"
0&"
0'"
1K
1I
0G
0J
1H
1E
0M
0K
0L
1J
0H
1O
1M
0N
1L
0O
1P
1N
0P
#280000
0!
0C
0D
#285000
1!
1C
1D
1'"
1G
0E
1H
#290000
0!
0C
0D
#295000
1!
1C
1D
1&"
0'"
0I
0G
0H
1E
1K
1I
0J
1H
0M
0K
0L
1J
1O
1M
0N
1L
0O
1P
1N
0P
#300000
0!
0C
0D
#305000
1!
1C
1D
1'"
1G
0E
0I
0H
1K
0J
0M
0L
1O
0N
1P
#310000
0!
0C
0D
#315000
1!
1C
1D
1""
0#"
0$"
0%"
0&"
0'"
0Q
0O
1M
0K
1I
0G
0P
1N
1L
1J
1H
1E
1Q
1R
1P
0N
0L
0J
0H
0R
#320000
0!
0C
0D
#325000
1!
1C
1D
1'"
1G
0E
1H
#330000
0!
0C
0D
#335000
1!
1C
1D
1&"
0'"
0^
0I
0G
0H
1E
1I
1J
1H
0J
#340000
0!
0C
0D
#345000
1!
1C
1D
1'"
1^
1G
0E
0I
0H
1J
#350000
0!
0C
0D
#355000
1!
1C
1D
1%"
0&"
0'"
1K
1I
0G
0J
1H
1E
0K
1L
1J
0H
0L
#360000
0!
0C
0D
#365000
1!
1C
1D
1'"
1G
0E
1H
#370000
0!
0C
0D
#375000
1!
1C
1D
1&"
0'"
0I
0G
0H
1E
1K
1I
0J
1H
0K
1L
1J
0L
#380000
0!
0C
0D
#385000
1!
1C
1D
1'"
1G
0E
0I
0H
1K
0J
1L
#390000
0!
0C
0D
#395000
1!
1C
1D
1$"
0%"
0&"
0'"
0M
0K
1I
0G
0L
1J
1H
1E
1M
1N
1L
0J
0H
0N
#400000
0!
0C
0D
#405000
1!
1C
1D
1'"
1G
0E
1H
#410000
0!
0C
0D
#415000
1!
1C
1D
1&"
0'"
0I
0G
0H
1E
1I
1J
1H
0J
#420000
0!
0C
0D
#425000
1!
1C
1D
1'"
1G
0E
0I
0H
1J
#430000
0!
0C
0D
#435000
1!
1C
1D
1%"
0&"
0'"
1K
1I
0G
0J
1H
1E
0M
0K
0L
1J
0H
1M
1N
1L
0N
#440000
0!
0C
0D
#445000
1!
1C
1D
1'"
1G
0E
1H
#450000
0!
0C
0D
#455000
1!
1C
1D
1&"
0'"
0I
0G
0H
1E
1K
1I
0J
1H
0M
0K
0L
1J
1M
1N
1L
0N
#460000
0!
0C
0D
#465000
1!
1C
1D
1'"
1G
0E
0I
0H
1K
0J
0M
0L
1N
#470000
0!
0C
0D
#475000
1!
1C
1D
1#"
0$"
0%"
0&"
0'"
0_
1O
1M
0K
1I
0G
0N
1L
1J
1H
1E
0Q
0O
0P
1N
0L
0J
0H
1Q
1R
1P
0R
#480000
0!
0C
0D
#485000
1!
1C
1D
1'"
1G
0E
1H
#490000
0!
0C
0D
#495000
1!
1C
1D
1&"
0'"
0^
0I
0G
0H
1E
0i
1I
1J
1H
1F
1j
0J
#500000
0!
0C
0D
#505000
1!
1C
1D
1k
0""
0#"
0&"
1#!
1l
1_
1^
1m
1$!
0j
0P
0N
0H
1i
0F
1j
1P!
1{
1N!
1?
1Q!
1R!
1|
1.
1u
1[!
1S!
0\!
0y
#510000
0!
0C
0D
#515000
1!
1C
1D
1'"
1G
0E
1H
#520000
0!
0C
0D
#525000
1!
1C
1D
1&"
0'"
0^
0I
0G
0H
1E
1I
1J
1H
0J
#530000
0!
0C
0D
#535000
1!
1C
1D
1'"
1^
1G
0E
0I
0H
1J
#540000
0!
0C
0D
#545000
1!
1C
1D
1%"
0&"
0'"
1K
1I
0G
0J
1H
1E
0K
1L
1J
0H
0L
#550000
0!
0C
0D
#555000
1!
1C
1D
1'"
1G
0E
1H
#560000
0!
0C
0D
#565000
1!
1C
1D
1&"
0'"
0I
0G
0H
1E
1K
1I
0J
1H
0K
1L
1J
0L
#570000
0!
0C
0D
#575000
1!
1C
1D
1'"
1G
0E
0I
0H
1K
0J
1L
#580000
0!
0C
0D
#585000
1!
1C
1D
1$"
0%"
0&"
0'"
0M
0K
1I
0G
0L
1J
1H
1E
1M
1N
1L
0J
0H
0N
#590000
0!
0C
0D
#595000
1!
1C
1D
1'"
1G
0E
1H
#600000
0!
0C
0D
#605000
1!
1C
1D
1&"
0'"
0I
0G
0H
1E
1I
1J
1H
0J
#610000
0!
0C
0D
#615000
1!
1C
1D
1'"
1G
0E
0I
0H
1J
#620000
0!
0C
0D
#625000
1!
1C
1D
1%"
0&"
0'"
1K
1I
0G
0J
1H
1E
0M
0K
0L
1J
0H
1M
1N
1L
0N
#630000
0!
0C
0D
#635000
1!
1C
1D
1'"
1G
0E
1H
#640000
0!
0C
0D
#645000
1!
1C
1D
1&"
0'"
0I
0G
0H
1E
1K
1I
0J
1H
0M
0K
0L
1J
1M
1N
1L
0N
#650000
0!
0C
0D
#655000
1!
1C
1D
1'"
1G
0E
0I
0H
1K
0J
0M
0L
1N
#660000
0!
0C
0D
#665000
1!
1C
1D
1#"
0$"
0%"
0&"
0'"
1O
1M
0K
1I
0G
0N
1L
1J
1H
1E
0O
1P
1N
0L
0J
0H
0P
#670000
0!
0C
0D
#675000
1!
1C
1D
1'"
1G
0E
1H
#680000
0!
0C
0D
#685000
1!
1C
1D
1&"
0'"
0^
0I
0G
0H
1E
1I
1J
1H
0J
#690000
0!
0C
0D
#695000
1!
1C
1D
1'"
1^
1G
0E
0I
0H
1J
#700000
0!
0C
0D
#705000
1!
1C
1D
1%"
0&"
0'"
1K
1I
0G
0J
1H
1E
0K
1L
1J
0H
0L
#710000
0!
0C
0D
#715000
1!
1C
1D
1'"
1G
0E
1H
#720000
0!
0C
0D
#725000
1!
1C
1D
1&"
0'"
0I
0G
0H
1E
1K
1I
0J
1H
0K
1L
1J
0L
#730000
0!
0C
0D
#735000
1!
1C
1D
1'"
1G
0E
0I
0H
1K
0J
1L
#740000
0!
0C
0D
#745000
1!
1C
1D
1$"
0%"
0&"
0'"
0M
0K
1I
0G
0L
1J
1H
1E
1O
1M
0N
1L
0J
0H
0O
1P
1N
0P
#750000
0!
0C
0D
#755000
1!
1C
1D
1'"
1G
0E
1H
#760000
0!
0C
0D
#765000
1!
1C
1D
1&"
0'"
0I
0G
0H
1E
1I
1J
1H
0J
#770000
0!
0C
0D
#775000
1!
1C
1D
1'"
1G
0E
0I
0H
1J
#780000
0!
0C
0D
#785000
1!
1C
1D
1%"
0&"
0'"
1K
1I
0G
0J
1H
1E
0M
0K
0L
1J
0H
1O
1M
0N
1L
0O
1P
1N
0P
#790000
0!
0C
0D
#795000
1!
1C
1D
1'"
1G
0E
1H
#800000
0!
0C
0D
#805000
1!
1C
1D
1&"
0'"
0I
0G
0H
1E
1K
1I
0J
1H
0M
0K
0L
1J
1O
1M
0N
1L
0O
1P
1N
0P
#810000
0!
0C
0D
#815000
1!
1C
1D
1'"
1G
0E
0I
0H
1K
0J
0M
0L
1O
0N
1P
#820000
0!
0C
0D
#825000
1!
1C
1D
1""
0#"
0$"
0%"
0&"
0'"
0Q
0O
1M
0K
1I
0G
0P
1N
1L
1J
1H
1E
1Q
1R
1P
0N
0L
0J
0H
0R
#830000
0!
0C
0D
#835000
1!
1C
1D
1'"
1G
0E
1H
#840000
0!
0C
0D
#845000
1!
1C
1D
1&"
0'"
0^
0I
0G
0H
1E
1I
1J
1H
0J
#850000
0!
0C
0D
#855000
1!
1C
1D
1'"
1^
1G
0E
0I
0H
1J
#860000
0!
0C
0D
#865000
1!
1C
1D
1%"
0&"
0'"
1K
1I
0G
0J
1H
1E
0K
1L
1J
0H
0L
#870000
0!
0C
0D
#875000
1!
1C
1D
1'"
1G
0E
1H
#880000
0!
0C
0D
#885000
1!
1C
1D
1&"
0'"
0I
0G
0H
1E
1K
1I
0J
1H
0K
1L
1J
0L
#890000
0!
0C
0D
#895000
1!
1C
1D
1'"
1G
0E
0I
0H
1K
0J
1L
#900000
0!
0C
0D
#905000
1!
1C
1D
1$"
0%"
0&"
0'"
0M
0K
1I
0G
0L
1J
1H
1E
1M
1N
1L
0J
0H
0N
#910000
0!
0C
0D
#915000
1!
1C
1D
1'"
1G
0E
1H
#920000
0!
0C
0D
#925000
1!
1C
1D
1&"
0'"
0I
0G
0H
1E
1I
1J
1H
0J
#930000
0!
0C
0D
#935000
1!
1C
1D
1'"
1G
0E
0I
0H
1J
#940000
0!
0C
0D
#945000
1!
1C
1D
1%"
0&"
0'"
1K
1I
0G
0J
1H
1E
0M
0K
0L
1J
0H
1M
1N
1L
0N
#950000
0!
0C
0D
#955000
1!
1C
1D
1'"
1G
0E
1H
#960000
0!
0C
0D
#965000
1!
1C
1D
1&"
0'"
0I
0G
0H
1E
1K
1I
0J
1H
0M
0K
0L
1J
1M
1N
1L
0N
#970000
0!
0C
0D
#975000
1!
1C
1D
1'"
1G
0E
0I
0H
1K
0J
0M
0L
1N
#980000
0!
0C
0D
#985000
1!
1C
1D
1#"
0$"
0%"
0&"
0'"
0_
1O
1M
0K
1I
0G
0N
1L
1J
1H
1E
0Q
0O
0P
1N
0L
0J
0H
1Q
1R
1P
0R
#990000
0!
0C
0D
#995000
1!
1C
1D
1'"
1G
0E
1H
#1000000
0!
0C
0D
#1005000
1!
1C
1D
1&"
0'"
0^
0I
0G
0H
1E
0i
1I
1J
1H
1F
0j
0J
#1010000
0!
0C
0D
#1015000
1!
1C
1D
0k
0""
0#"
0&"
0#!
0l
1_
1^
0m
0$!
1j
0P
0N
0H
1i
0F
0j
#1020000
0!
0C
0D
#1025000
1!
1C
1D
1'"
1G
0E
1H
#1030000
0!
0C
0D
#1035000
1!
1C
1D
1&"
0'"
0^
0I
0G
0H
1E
1I
1J
1H
0J
#1040000
0!
0C
0D
#1045000
1!
1C
1D
1'"
1^
1G
0E
0I
0H
1J
#1050000
0!
0C
0D
#1055000
1!
1C
1D
1%"
0&"
0'"
1K
1I
0G
0J
1H
1E
0K
1L
1J
0H
0L
#1060000
0!
0C
0D
#1065000
1!
1C
1D
1'"
1G
0E
1H
#1070000
0!
0C
0D
#1075000
1!
1C
1D
1&"
0'"
0I
0G
0H
1E
1K
1I
0J
1H
0K
1L
1J
0L
#1080000
0!
0C
0D
#1085000
1!
1C
1D
1'"
1G
0E
0I
0H
1K
0J
1L
#1090000
0!
0C
0D
#1095000
1!
1C
1D
1$"
0%"
0&"
0'"
0M
0K
1I
0G
0L
1J
1H
1E
1M
1N
1L
0J
0H
0N
#1100000
0!
0C
0D
#1105000
1!
1C
1D
1'"
1G
0E
1H
#1110000
0!
0C
0D
#1115000
1!
1C
1D
1&"
0'"
0I
0G
0H
1E
1I
1J
1H
0J
#1120000
0!
0C
0D
#1125000
1!
1C
1D
1'"
1G
0E
0I
0H
1J
#1130000
0!
0C
0D
#1135000
1!
1C
1D
1%"
0&"
0'"
1K
1I
0G
0J
1H
1E
0M
0K
0L
1J
0H
1M
1N
1L
0N
#1140000
0!
0C
0D
#1145000
1!
1C
1D
1'"
1G
0E
1H
#1150000
0!
0C
0D
#1155000
1!
1C
1D
1&"
0'"
0I
0G
0H
1E
1K
1I
0J
1H
0M
0K
0L
1J
1M
1N
1L
0N
#1160000
0!
0C
0D
#1165000
1!
1C
1D
1'"
1G
0E
0I
0H
1K
0J
0M
0L
1N
#1170000
0!
0C
0D
#1175000
1!
1C
1D
1#"
0$"
0%"
0&"
0'"
1O
1M
0K
1I
0G
0N
1L
1J
1H
1E
0O
1P
1N
0L
0J
0H
0P
#1180000
0!
0C
0D
#1185000
1!
1C
1D
1'"
1G
0E
1H
#1190000
0!
0C
0D
#1195000
1!
1C
1D
1&"
0'"
0^
0I
0G
0H
1E
1I
1J
1H
0J
#1200000
0!
0C
0D
#1205000
1!
1C
1D
1'"
1^
1G
0E
0I
0H
1J
#1210000
0!
0C
0D
#1215000
1!
1C
1D
1%"
0&"
0'"
1K
1I
0G
0J
1H
1E
0K
1L
1J
0H
0L
#1220000
0!
0C
0D
#1225000
1!
1C
1D
1'"
1G
0E
1H
#1230000
0!
0C
0D
#1235000
1!
1C
1D
1&"
0'"
0I
0G
0H
1E
1K
1I
0J
1H
0K
1L
1J
0L
#1240000
0!
0C
0D
#1245000
1!
1C
1D
1'"
1G
0E
0I
0H
1K
0J
1L
#1250000
0!
0C
0D
#1255000
1!
1C
1D
1$"
0%"
0&"
0'"
0M
0K
1I
0G
0L
1J
1H
1E
1O
1M
0N
1L
0J
0H
0O
1P
1N
0P
#1260000
0!
0C
0D
#1265000
1!
1C
1D
1'"
1G
0E
1H
#1270000
0!
0C
0D
#1275000
1!
1C
1D
1&"
0'"
0I
0G
0H
1E
1I
1J
1H
0J
#1280000
0!
0C
0D
#1285000
1!
1C
1D
1'"
1G
0E
0I
0H
1J
#1290000
0!
0C
0D
#1295000
1!
1C
1D
1%"
0&"
0'"
1K
1I
0G
0J
1H
1E
0M
0K
0L
1J
0H
1O
1M
0N
1L
0O
1P
1N
0P
#1300000
0!
0C
0D
#1305000
1!
1C
1D
1'"
1G
0E
1H
#1310000
0!
0C
0D
#1315000
1!
1C
1D
1&"
0'"
0I
0G
0H
1E
1K
1I
0J
1H
0M
0K
0L
1J
1O
1M
0N
1L
0O
1P
1N
0P
#1320000
0!
0C
0D
#1325000
1!
1C
1D
1'"
1G
0E
0I
0H
1K
0J
0M
0L
1O
0N
1P
#1330000
0!
0C
0D
#1335000
1!
1C
1D
1""
0#"
0$"
0%"
0&"
0'"
0Q
0O
1M
0K
1I
0G
0P
1N
1L
1J
1H
1E
1Q
1R
1P
0N
0L
0J
0H
0R
#1340000
0!
0C
0D
#1345000
1!
1C
1D
1'"
1G
0E
1H
#1350000
0!
0C
0D
#1355000
1!
1C
1D
1&"
0'"
0^
0I
0G
0H
1E
1I
1J
1H
0J
#1360000
0!
0C
0D
#1365000
1!
1C
1D
1'"
1^
1G
0E
0I
0H
1J
#1370000
0!
0C
0D
#1375000
1!
1C
1D
1%"
0&"
0'"
1K
1I
0G
0J
1H
1E
0K
1L
1J
0H
0L
#1380000
0!
0C
0D
#1385000
1!
1C
1D
1'"
1G
0E
1H
#1390000
0!
0C
0D
#1395000
1!
1C
1D
1&"
0'"
0I
0G
0H
1E
1K
1I
0J
1H
0K
1L
1J
0L
#1400000
0!
0C
0D
#1405000
1!
1C
1D
1'"
1G
0E
0I
0H
1K
0J
1L
#1410000
0!
0C
0D
#1415000
1!
1C
1D
1$"
0%"
0&"
0'"
0M
0K
1I
0G
0L
1J
1H
1E
1M
1N
1L
0J
0H
0N
#1420000
0!
0C
0D
#1425000
1!
1C
1D
1'"
1G
0E
1H
#1430000
0!
0C
0D
#1435000
1!
1C
1D
1&"
0'"
0I
0G
0H
1E
1I
1J
1H
0J
#1440000
0!
0C
0D
#1445000
1!
1C
1D
1'"
1G
0E
0I
0H
1J
#1450000
0!
0C
0D
#1455000
1!
1C
1D
1%"
0&"
0'"
1K
1I
0G
0J
1H
1E
0M
0K
0L
1J
0H
1M
1N
1L
0N
#1460000
0!
0C
0D
#1465000
1!
1C
1D
1'"
1G
0E
1H
#1470000
0!
0C
0D
#1475000
1!
1C
1D
1&"
0'"
0I
0G
0H
1E
1K
1I
0J
1H
0M
0K
0L
1J
1M
1N
1L
0N
#1480000
0!
0C
0D
#1485000
1!
1C
1D
1'"
1G
0E
0I
0H
1K
0J
0M
0L
1N
#1490000
0!
0C
0D
#1495000
1!
1C
1D
1#"
0$"
0%"
0&"
0'"
0_
1O
1M
0K
1I
0G
0N
1L
1J
1H
1E
0Q
0O
0P
1N
0L
0J
0H
1Q
1R
1P
0R
#1500000
0!
0C
0D
