Hardware/Servomotor/Quartus/simulation/qsim/Servomotor.msim.vcd
$comment
	File created using the following command:
		vcd file Servomotor.msim.vcd -direction
$end
$date
	Sat May 15 17:28:51 2021
$end
$version
	ModelSim Version 2020.1
$end
$timescale
	1ps
$end

$scope module Servomotor_vlg_vec_tst $end
$var reg 12 ! Ciclo [11:0] $end
$var reg 1 " Clock $end
$var reg 16 # Periodo [15:0] $end
$var wire 1 $ BaseCounter [15] $end
$var wire 1 % BaseCounter [14] $end
$var wire 1 & BaseCounter [13] $end
$var wire 1 ' BaseCounter [12] $end
$var wire 1 ( BaseCounter [11] $end
$var wire 1 ) BaseCounter [10] $end
$var wire 1 * BaseCounter [9] $end
$var wire 1 + BaseCounter [8] $end
$var wire 1 , BaseCounter [7] $end
$var wire 1 - BaseCounter [6] $end
$var wire 1 . BaseCounter [5] $end
$var wire 1 / BaseCounter [4] $end
$var wire 1 0 BaseCounter [3] $end
$var wire 1 1 BaseCounter [2] $end
$var wire 1 2 BaseCounter [1] $end
$var wire 1 3 BaseCounter [0] $end
$var wire 1 4 Out $end
$var wire 1 5 Ticks [11] $end
$var wire 1 6 Ticks [10] $end
$var wire 1 7 Ticks [9] $end
$var wire 1 8 Ticks [8] $end
$var wire 1 9 Ticks [7] $end
$var wire 1 : Ticks [6] $end
$var wire 1 ; Ticks [5] $end
$var wire 1 < Ticks [4] $end
$var wire 1 = Ticks [3] $end
$var wire 1 > Ticks [2] $end
$var wire 1 ? Ticks [1] $end
$var wire 1 @ Ticks [0] $end

$scope module i1 $end
$var wire 1 A gnd $end
$var wire 1 B vcc $end
$var wire 1 C unknown $end
$var tri1 1 D devclrn $end
$var tri1 1 E devpor $end
$var tri1 1 F devoe $end
$var wire 1 G Out~output_o $end
$var wire 1 H BaseCounter[0]~output_o $end
$var wire 1 I BaseCounter[1]~output_o $end
$var wire 1 J BaseCounter[2]~output_o $end
$var wire 1 K BaseCounter[3]~output_o $end
$var wire 1 L BaseCounter[4]~output_o $end
$var wire 1 M BaseCounter[5]~output_o $end
$var wire 1 N BaseCounter[6]~output_o $end
$var wire 1 O BaseCounter[7]~output_o $end
$var wire 1 P BaseCounter[8]~output_o $end
$var wire 1 Q BaseCounter[9]~output_o $end
$var wire 1 R BaseCounter[10]~output_o $end
$var wire 1 S BaseCounter[11]~output_o $end
$var wire 1 T BaseCounter[12]~output_o $end
$var wire 1 U BaseCounter[13]~output_o $end
$var wire 1 V BaseCounter[14]~output_o $end
$var wire 1 W BaseCounter[15]~output_o $end
$var wire 1 X Ticks[0]~output_o $end
$var wire 1 Y Ticks[1]~output_o $end
$var wire 1 Z Ticks[2]~output_o $end
$var wire 1 [ Ticks[3]~output_o $end
$var wire 1 \ Ticks[4]~output_o $end
$var wire 1 ] Ticks[5]~output_o $end
$var wire 1 ^ Ticks[6]~output_o $end
$var wire 1 _ Ticks[7]~output_o $end
$var wire 1 ` Ticks[8]~output_o $end
$var wire 1 a Ticks[9]~output_o $end
$var wire 1 b Ticks[10]~output_o $end
$var wire 1 c Ticks[11]~output_o $end
$var wire 1 d Clock~input_o $end
$var wire 1 e Clock~inputclkctrl_outclk $end
$var wire 1 f Ciclo[3]~input_o $end
$var wire 1 g Add1~0_combout $end
$var wire 1 h Add1~7 $end
$var wire 1 i Add1~8_combout $end
$var wire 1 j Periodo[12]~input_o $end
$var wire 1 k Periodo[13]~input_o $end
$var wire 1 l BaseCounter[0]~16_combout $end
$var wire 1 m BaseCounter[0]~reg0_q $end
$var wire 1 n BaseCounter[0]~17 $end
$var wire 1 o BaseCounter[1]~18_combout $end
$var wire 1 p BaseCounter[1]~reg0_q $end
$var wire 1 q BaseCounter[1]~19 $end
$var wire 1 r BaseCounter[2]~20_combout $end
$var wire 1 s BaseCounter[2]~reg0_q $end
$var wire 1 t BaseCounter[2]~21 $end
$var wire 1 u BaseCounter[3]~22_combout $end
$var wire 1 v BaseCounter[3]~reg0_q $end
$var wire 1 w BaseCounter[3]~23 $end
$var wire 1 x BaseCounter[4]~24_combout $end
$var wire 1 y BaseCounter[4]~reg0_q $end
$var wire 1 z BaseCounter[4]~25 $end
$var wire 1 { BaseCounter[5]~26_combout $end
$var wire 1 | BaseCounter[5]~reg0_q $end
$var wire 1 } BaseCounter[5]~27 $end
$var wire 1 ~ BaseCounter[6]~28_combout $end
$var wire 1 !! BaseCounter[6]~reg0_q $end
$var wire 1 "! BaseCounter[6]~29 $end
$var wire 1 #! BaseCounter[7]~30_combout $end
$var wire 1 $! BaseCounter[7]~reg0_q $end
$var wire 1 %! BaseCounter[7]~31 $end
$var wire 1 &! BaseCounter[8]~32_combout $end
$var wire 1 '! BaseCounter[8]~reg0_q $end
$var wire 1 (! BaseCounter[8]~33 $end
$var wire 1 )! BaseCounter[9]~34_combout $end
$var wire 1 *! BaseCounter[9]~reg0_q $end
$var wire 1 +! BaseCounter[9]~35 $end
$var wire 1 ,! BaseCounter[10]~36_combout $end
$var wire 1 -! BaseCounter[10]~reg0_q $end
$var wire 1 .! BaseCounter[10]~37 $end
$var wire 1 /! BaseCounter[11]~38_combout $end
$var wire 1 0! BaseCounter[11]~reg0_q $end
$var wire 1 1! BaseCounter[11]~39 $end
$var wire 1 2! BaseCounter[12]~40_combout $end
$var wire 1 3! BaseCounter[12]~reg0_q $end
$var wire 1 4! BaseCounter[12]~41 $end
$var wire 1 5! BaseCounter[13]~42_combout $end
$var wire 1 6! BaseCounter[13]~reg0_q $end
$var wire 1 7! Equal0~8_combout $end
$var wire 1 8! Periodo[14]~input_o $end
$var wire 1 9! BaseCounter[13]~43 $end
$var wire 1 :! BaseCounter[14]~44_combout $end
$var wire 1 ;! BaseCounter[14]~reg0_q $end
$var wire 1 <! Periodo[15]~input_o $end
$var wire 1 =! BaseCounter[14]~45 $end
$var wire 1 >! BaseCounter[15]~46_combout $end
$var wire 1 ?! BaseCounter[15]~reg0_q $end
$var wire 1 @! Equal0~9_combout $end
$var wire 1 A! Periodo[10]~input_o $end
$var wire 1 B! Periodo[9]~input_o $end
$var wire 1 C! Periodo[8]~input_o $end
$var wire 1 D! Equal0~5_combout $end
$var wire 1 E! Periodo[11]~input_o $end
$var wire 1 F! Equal0~6_combout $end
$var wire 1 G! Equal0~7_combout $end
$var wire 1 H! Periodo[3]~input_o $end
$var wire 1 I! Periodo[2]~input_o $end
$var wire 1 J! Equal0~1_combout $end
$var wire 1 K! Periodo[7]~input_o $end
$var wire 1 L! Periodo[6]~input_o $end
$var wire 1 M! Equal0~3_combout $end
$var wire 1 N! Periodo[1]~input_o $end
$var wire 1 O! Periodo[0]~input_o $end
$var wire 1 P! Equal0~0_combout $end
$var wire 1 Q! Periodo[5]~input_o $end
$var wire 1 R! Periodo[4]~input_o $end
$var wire 1 S! Equal0~2_combout $end
$var wire 1 T! Equal0~4_combout $end
$var wire 1 U! Equal0~10_combout $end
$var wire 1 V! Ticks[4]~reg0_q $end
$var wire 1 W! Add1~9 $end
$var wire 1 X! Add1~10_combout $end
$var wire 1 Y! Ticks[5]~reg0_q $end
$var wire 1 Z! Add1~11 $end
$var wire 1 [! Add1~12_combout $end
$var wire 1 \! Ticks[6]~reg0_q $end
$var wire 1 ]! Add1~13 $end
$var wire 1 ^! Add1~14_combout $end
$var wire 1 _! Ticks[7]~reg0_q $end
$var wire 1 `! Add1~15 $end
$var wire 1 a! Add1~16_combout $end
$var wire 1 b! Ticks[8]~reg0_q $end
$var wire 1 c! Add1~17 $end
$var wire 1 d! Add1~18_combout $end
$var wire 1 e! Ticks[9]~reg0_q $end
$var wire 1 f! Add1~19 $end
$var wire 1 g! Add1~20_combout $end
$var wire 1 h! Ticks[10]~reg0_q $end
$var wire 1 i! Add1~21 $end
$var wire 1 j! Add1~22_combout $end
$var wire 1 k! Ticks[11]~reg0_q $end
$var wire 1 l! Equal1~2_combout $end
$var wire 1 m! Equal1~1_combout $end
$var wire 1 n! Equal1~0_combout $end
$var wire 1 o! Ticks~0_combout $end
$var wire 1 p! Ticks[0]~reg0_q $end
$var wire 1 q! Add1~1 $end
$var wire 1 r! Add1~2_combout $end
$var wire 1 s! Ticks[1]~reg0_q $end
$var wire 1 t! Add1~3 $end
$var wire 1 u! Add1~4_combout $end
$var wire 1 v! Ticks~1_combout $end
$var wire 1 w! Ticks[2]~reg0_q $end
$var wire 1 x! Add1~5 $end
$var wire 1 y! Add1~6_combout $end
$var wire 1 z! Ticks[3]~reg0_q $end
$var wire 1 {! Ciclo[2]~input_o $end
$var wire 1 |! Equal2~1_combout $end
$var wire 1 }! Ciclo[7]~input_o $end
$var wire 1 ~! Ciclo[6]~input_o $end
$var wire 1 !" Equal2~3_combout $end
$var wire 1 "" Ciclo[5]~input_o $end
$var wire 1 #" Ciclo[4]~input_o $end
$var wire 1 $" Equal2~2_combout $end
$var wire 1 %" Ciclo[0]~input_o $end
$var wire 1 &" Ciclo[1]~input_o $end
$var wire 1 '" Equal2~0_combout $end
$var wire 1 (" Equal2~4_combout $end
$var wire 1 )" Ciclo[8]~input_o $end
$var wire 1 *" Ciclo[9]~input_o $end
$var wire 1 +" Equal2~5_combout $end
$var wire 1 ," Out~0_combout $end
$var wire 1 -" Ciclo[11]~input_o $end
$var wire 1 ." Ciclo[10]~input_o $end
$var wire 1 /" Equal2~6_combout $end
$var wire 1 0" Out~1_combout $end
$var wire 1 1" Out~reg0_q $end
$upscope $end
$upscope $end
$enddefinitions $end
#0
$dumpvars
b10 !
0"
b100 #
03
02
01
00
0/
0.
0-
0,
0+
0*
0)
0(
0'
0&
0%
0$
04
0@
0?
0>
0=
0<
0;
0:
09
08
07
06
05
0A
1B
xC
1D
1E
1F
0G
0H
0I
0J
0K
0L
0M
0N
0O
0P
0Q
0R
0S
0T
0U
0V
0W
0X
0Y
0Z
0[
0\
0]
0^
0_
0`
0a
0b
0c
0d
0e
0f
1g
1h
0i
0j
0k
1l
0m
0n
0o
0p
1q
0r
0s
0t
0u
0v
1w
0x
0y
0z
0{
0|
1}
0~
0!!
0"!
0#!
0$!
1%!
0&!
0'!
0(!
0)!
0*!
1+!
0,!
0-!
0.!
0/!
00!
11!
02!
03!
04!
05!
06!
17!
08!
19!
0:!
0;!
0<!
0=!
0>!
0?!
1@!
0A!
0B!
0C!
1D!
0E!
0F!
1G!
0H!
1I!
0J!
0K!
0L!
1M!
0N!
0O!
1P!
0Q!
0R!
1S!
0T!
0U!
0V!
0W!
0X!
0Y!
1Z!
0[!
0\!
0]!
0^!
0_!
1`!
0a!
0b!
0c!
0d!
0e!
1f!
0g!
0h!
0i!
0j!
0k!
1l!
1m!
0n!
1o!
0p!
0q!
0r!
0s!
1t!
0u!
0v!
0w!
0x!
0y!
0z!
0{!
1|!
0}!
0~!
1!"
0""
0#"
1$"
0%"
1&"
0'"
0("
0)"
0*"
1+"
0,"
0-"
0."
1/"
00"
01"
$end
#1000
1"
1d
1e
1m
1H
0P!
1n
13
0l
1o
#2000
0"
0d
0e
#3000
1"
1d
1e
1p
0m
0H
1I
0q
0n
12
03
0o
1l
1q
1r
1o
0r
#4000
0"
0d
0e
#5000
1"
1d
1e
1m
1H
1n
13
0l
0q
0o
1r
#6000
0"
0d
0e
#7000
1"
1d
1e
1s
0p
0m
0H
0I
1J
1J!
1t
1P!
1q
0n
11
02
03
0r
1o
1l
1T!
0t
1u
1r
0o
1U!
0u
#8000
0"
0d
0e
#9000
1"
1d
1e
1p!
0s
0J
1X
0m!
1q!
0g
0J!
1@
01
0r
0T!
0o!
1r!
0U!
#10000
0"
0d
0e
#11000
1"
1d
1e
1m
1H
0P!
1n
13
0l
1o
#12000
0"
0d
0e
#13000
1"
1d
1e
1p
0m
0H
1I
0q
0n
12
03
0o
1l
1q
1r
1o
0r
#14000
0"
0d
0e
#15000
1"
1d
1e
1m
1H
1n
13
0l
0q
0o
1r
#16000
0"
0d
0e
#17000
1"
1d
1e
1s
0p
0m
0H
0I
1J
1J!
1t
1P!
1q
0n
11
02
03
0r
1o
1l
1T!
0t
1u
1r
0o
1U!
0u
#18000
0"
0d
0e
#19000
1"
1d
1e
1s!
0p!
0s
0J
0X
1Y
1'"
0t!
0q!
1g
0J!
1?
0@
01
0r!
0r
1("
1u!
1t!
0T!
1r!
1o!
0u!
0U!
1v!
0v!
#20000
0"
0d
0e
#21000
1"
1d
1e
1m
1H
0P!
1n
13
0l
1o
#22000
0"
0d
0e
#23000
1"
1d
1e
1p
0m
0H
1I
0q
0n
12
03
0o
1l
1q
1r
1o
0r
#24000
0"
0d
0e
#25000
1"
1d
1e
1m
1H
1n
13
0l
0q
0o
1r
#26000
0"
0d
0e
#27000
1"
1d
1e
1s
0p
0m
0H
0I
1J
1J!
1t
1P!
1q
0n
11
02
03
0r
1o
1l
1T!
0t
1u
1r
0o
1U!
0u
#28000
0"
0d
0e
#29000
1"
1d
1e
1p!
0s
0J
1X
0'"
1q!
0g
0J!
1@
01
0r
0("
0t!
0T!
0r!
0o!
1u!
0U!
1v!
#30000
0"
0d
0e
#31000
1"
1d
1e
1m
1H
0P!
1n
13
0l
1o
#32000
0"
0d
0e
#33000
1"
1d
1e
1p
0m
0H
1I
0q
0n
12
03
0o
1l
1q
1r
1o
0r
#34000
0"
0d
0e
#35000
1"
1d
1e
1m
1H
1n
13
0l
0q
0o
1r
#36000
0"
0d
0e
#37000
1"
1d
1e
1s
0p
0m
0H
0I
1J
1J!
1t
1P!
1q
0n
11
02
03
0r
1o
1l
1T!
0t
1u
1r
0o
1U!
0u
#38000
0"
0d
0e
#39000
1"
1d
1e
1w!
0s!
0p!
0s
0J
0X
0Y
1Z
0|!
1x!
0u!
1n!
1t!
1m!
0q!
1g
0J!
1>
0?
0@
01
1r!
0r
1,"
0x!
1u!
0T!
1y!
0v!
0r!
0U!
10"
0y!
#40000
0"
0d
0e
#41000
1"
1d
1e
1m
1H
0P!
1n
13
0l
1o
#42000
0"
0d
0e
#43000
1"
1d
1e
1p
0m
0H
1I
0q
0n
12
03
0o
1l
1q
1r
1o
0r
#44000
0"
0d
0e
#45000
1"
1d
1e
1m
1H
1n
13
0l
0q
0o
1r
#46000
0"
0d
0e
#47000
1"
1d
1e
1s
0p
0m
0H
0I
1J
1J!
1t
1P!
1q
0n
11
02
03
0r
1o
1l
1T!
0t
1u
1r
0o
1U!
0u
#48000
0"
0d
0e
#49000
1"
1d
1e
11"
0w!
0s
0J
0Z
1G
1|!
0u!
0n!
0J!
14
0>
01
0r
0T!
1o!
0U!
#50000
0"
0d
0e
#51000
1"
1d
1e
1m
1H
0P!
1n
13
0l
1o
#52000
0"
0d
0e
#53000
1"
1d
1e
1p
0m
0H
1I
0q
0n
12
03
0o
1l
1q
1r
1o
0r
#54000
0"
0d
0e
#55000
1"
1d
1e
1m
1H
1n
13
0l
0q
0o
1r
#56000
0"
0d
0e
#57000
1"
1d
1e
1s
0p
0m
0H
0I
1J
1J!
1t
1P!
1q
0n
11
02
03
0r
1o
1l
1T!
0t
1u
1r
0o
1U!
0u
#58000
0"
0d
0e
#59000
1"
1d
1e
1p!
0s
0J
1X
0m!
1q!
0g
0J!
1@
01
0r
0T!
0o!
1r!
0U!
#60000
0"
0d
0e
#61000
1"
1d
1e
1m
1H
0P!
1n
13
0l
1o
#62000
0"
0d
0e
#63000
1"
1d
1e
1p
0m
0H
1I
0q
0n
12
03
0o
1l
1q
1r
1o
0r
#64000
0"
0d
0e
#65000
1"
1d
1e
1m
1H
1n
13
0l
0q
0o
1r
#66000
0"
0d
0e
#67000
1"
1d
1e
1s
0p
0m
0H
0I
1J
1J!
1t
1P!
1q
0n
11
02
03
0r
1o
1l
1T!
0t
1u
1r
0o
1U!
0u
#68000
0"
0d
0e
#69000
1"
1d
1e
1s!
0p!
0s
0J
0X
1Y
1'"
0t!
0q!
1g
0J!
1?
0@
01
0r!
0r
1("
1u!
1t!
0T!
1r!
1o!
0u!
0U!
00"
1v!
0v!
#70000
0"
0d
0e
#71000
1"
1d
1e
1m
1H
0P!
1n
13
0l
1o
#72000
0"
0d
0e
#73000
1"
1d
1e
1p
0m
0H
1I
0q
0n
12
03
0o
1l
1q
1r
1o
0r
#74000
0"
0d
0e
#75000
1"
1d
1e
1m
1H
1n
13
0l
0q
0o
1r
#76000
0"
0d
0e
#77000
1"
1d
1e
1s
0p
0m
0H
0I
1J
1J!
1t
1P!
1q
0n
11
02
03
0r
1o
1l
1T!
0t
1u
1r
0o
1U!
0u
#78000
0"
0d
0e
#79000
1"
1d
1e
01"
1p!
0s
0J
1X
0G
0,"
0'"
1q!
0g
0J!
04
1@
01
0r
0("
0t!
0T!
0r!
0o!
1u!
0U!
1v!
#80000
0"
0d
0e
#81000
1"
1d
1e
1m
1H
0P!
1n
13
0l
1o
#82000
0"
0d
0e
#83000
1"
1d
1e
1p
0m
0H
1I
0q
0n
12
03
0o
1l
1q
1r
1o
0r
#84000
0"
0d
0e
#85000
1"
1d
1e
1m
1H
1n
13
0l
0q
0o
1r
#86000
0"
0d
0e
#87000
1"
1d
1e
1s
0p
0m
0H
0I
1J
1J!
1t
1P!
1q
0n
11
02
03
0r
1o
1l
1T!
0t
1u
1r
0o
1U!
0u
#88000
0"
0d
0e
#89000
1"
1d
1e
1w!
0s!
0p!
0s
0J
0X
0Y
1Z
0|!
1x!
0u!
1n!
1t!
1m!
0q!
1g
0J!
1>
0?
0@
01
1r!
0r
1,"
0x!
1u!
0T!
1y!
0v!
0r!
0U!
10"
0y!
#90000
0"
0d
0e
#91000
1"
1d
1e
1m
1H
0P!
1n
13
0l
1o
#92000
0"
0d
0e
#93000
1"
1d
1e
1p
0m
0H
1I
0q
0n
12
03
0o
1l
1q
1r
1o
0r
#94000
0"
0d
0e
#95000
1"
1d
1e
1m
1H
1n
13
0l
0q
0o
1r
#96000
0"
0d
0e
#97000
1"
1d
1e
1s
0p
0m
0H
0I
1J
1J!
1t
1P!
1q
0n
11
02
03
0r
1o
1l
1T!
0t
1u
1r
0o
1U!
0u
#98000
0"
0d
0e
#99000
1"
1d
1e
11"
0w!
0s
0J
0Z
1G
1|!
0u!
0n!
0J!
14
0>
01
0r
0T!
1o!
0U!
#100000
0"
0d
0e
#101000
1"
1d
1e
1m
1H
0P!
1n
13
0l
1o
#102000
0"
0d
0e
#103000
1"
1d
1e
1p
0m
0H
1I
0q
0n
12
03
0o
1l
1q
1r
1o
0r
#104000
0"
0d
0e
#105000
1"
1d
1e
1m
1H
1n
13
0l
0q
0o
1r
#106000
0"
0d
0e
#107000
1"
1d
1e
1s
0p
0m
0H
0I
1J
1J!
1t
1P!
1q
0n
11
02
03
0r
1o
1l
1T!
0t
1u
1r
0o
1U!
0u
#108000
0"
0d
0e
#109000
1"
1d
1e
1p!
0s
0J
1X
0m!
1q!
0g
0J!
1@
01
0r
0T!
0o!
1r!
0U!
#110000
0"
0d
0e
#111000
1"
1d
1e
1m
1H
0P!
1n
13
0l
1o
#112000
0"
0d
0e
#113000
1"
1d
1e
1p
0m
0H
1I
0q
0n
12
03
0o
1l
1q
1r
1o
0r
#114000
0"
0d
0e
#115000
1"
1d
1e
1m
1H
1n
13
0l
0q
0o
1r
#116000
0"
0d
0e
#117000
1"
1d
1e
1s
0p
0m
0H
0I
1J
1J!
1t
1P!
1q
0n
11
02
03
0r
1o
1l
1T!
0t
1u
1r
0o
1U!
0u
#118000
0"
0d
0e
#119000
1"
1d
1e
1s!
0p!
0s
0J
0X
1Y
1'"
0t!
0q!
1g
0J!
1?
0@
01
0r!
0r
1("
1u!
1t!
0T!
1r!
1o!
0u!
0U!
00"
1v!
0v!
#120000
0"
0d
0e
#121000
1"
1d
1e
1m
1H
0P!
1n
13
0l
1o
#122000
0"
0d
0e
#123000
1"
1d
1e
1p
0m
0H
1I
0q
0n
12
03
0o
1l
1q
1r
1o
0r
#124000
0"
0d
0e
#125000
1"
1d
1e
1m
1H
1n
13
0l
0q
0o
1r
#126000
0"
0d
0e
#127000
1"
1d
1e
1s
0p
0m
0H
0I
1J
1J!
1t
1P!
1q
0n
11
02
03
0r
1o
1l
1T!
0t
1u
1r
0o
1U!
0u
#128000
0"
0d
0e
#129000
1"
1d
1e
01"
1p!
0s
0J
1X
0G
0,"
0'"
1q!
0g
0J!
04
1@
01
0r
0("
0t!
0T!
0r!
0o!
1u!
0U!
1v!
#130000
0"
0d
0e
#131000
1"
1d
1e
1m
1H
0P!
1n
13
0l
1o
#132000
0"
0d
0e
#133000
1"
1d
1e
1p
0m
0H
1I
0q
0n
12
03
0o
1l
1q
1r
1o
0r
#134000
0"
0d
0e
#135000
1"
1d
1e
1m
1H
1n
13
0l
0q
0o
1r
#136000
0"
0d
0e
#137000
1"
1d
1e
1s
0p
0m
0H
0I
1J
1J!
1t
1P!
1q
0n
11
02
03
0r
1o
1l
1T!
0t
1u
1r
0o
1U!
0u
#138000
0"
0d
0e
#139000
1"
1d
1e
1w!
0s!
0p!
0s
0J
0X
0Y
1Z
0|!
1x!
0u!
1n!
1t!
1m!
0q!
1g
0J!
1>
0?
0@
01
1r!
0r
1,"
0x!
1u!
0T!
1y!
0v!
0r!
0U!
10"
0y!
#140000
0"
0d
0e
#141000
1"
1d
1e
1m
1H
0P!
1n
13
0l
1o
#142000
0"
0d
0e
#143000
1"
1d
1e
1p
0m
0H
1I
0q
0n
12
03
0o
1l
1q
1r
1o
0r
#144000
0"
0d
0e
#145000
1"
1d
1e
1m
1H
1n
13
0l
0q
0o
1r
#146000
0"
0d
0e
#147000
1"
1d
1e
1s
0p
0m
0H
0I
1J
1J!
1t
1P!
1q
0n
11
02
03
0r
1o
1l
1T!
0t
1u
1r
0o
1U!
0u
#148000
0"
0d
0e
#149000
1"
1d
1e
11"
0w!
0s
0J
0Z
1G
1|!
0u!
0n!
0J!
14
0>
01
0r
0T!
1o!
0U!
#150000
0"
0d
0e
#151000
1"
1d
1e
1m
1H
0P!
1n
13
0l
1o
#152000
0"
0d
0e
#153000
1"
1d
1e
1p
0m
0H
1I
0q
0n
12
03
0o
1l
1q
1r
1o
0r
#154000
0"
0d
0e
#155000
1"
1d
1e
1m
1H
1n
13
0l
0q
0o
1r
#156000
0"
0d
0e
#157000
1"
1d
1e
1s
0p
0m
0H
0I
1J
1J!
1t
1P!
1q
0n
11
02
03
0r
1o
1l
1T!
0t
1u
1r
0o
1U!
0u
#158000
0"
0d
0e
#159000
1"
1d
1e
1p!
0s
0J
1X
0m!
1q!
0g
0J!
1@
01
0r
0T!
0o!
1r!
0U!
#160000
0"
0d
0e
#161000
1"
1d
1e
1m
1H
0P!
1n
13
0l
1o
#162000
0"
0d
0e
#163000
1"
1d
1e
1p
0m
0H
1I
0q
0n
12
03
0o
1l
1q
1r
1o
0r
#164000
0"
0d
0e
#165000
1"
1d
1e
1m
1H
1n
13
0l
0q
0o
1r
#166000
0"
0d
0e
#167000
1"
1d
1e
1s
0p
0m
0H
0I
1J
1J!
1t
1P!
1q
0n
11
02
03
0r
1o
1l
1T!
0t
1u
1r
0o
1U!
0u
#168000
0"
0d
0e
#169000
1"
1d
1e
1s!
0p!
0s
0J
0X
1Y
1'"
0t!
0q!
1g
0J!
1?
0@
01
0r!
0r
1("
1u!
1t!
0T!
1r!
1o!
0u!
0U!
00"
1v!
0v!
#170000
0"
0d
0e
#171000
1"
1d
1e
1m
1H
0P!
1n
13
0l
1o
#172000
0"
0d
0e
#173000
1"
1d
1e
1p
0m
0H
1I
0q
0n
12
03
0o
1l
1q
1r
1o
0r
#174000
0"
0d
0e
#175000
1"
1d
1e
1m
1H
1n
13
0l
0q
0o
1r
#176000
0"
0d
0e
#177000
1"
1d
1e
1s
0p
0m
0H
0I
1J
1J!
1t
1P!
1q
0n
11
02
03
0r
1o
1l
1T!
0t
1u
1r
0o
1U!
0u
#178000
0"
0d
0e
#179000
1"
1d
1e
01"
1p!
0s
0J
1X
0G
0,"
0'"
1q!
0g
0J!
04
1@
01
0r
0("
0t!
0T!
0r!
0o!
1u!
0U!
1v!
#180000
0"
0d
0e
#181000
1"
1d
1e
1m
1H
0P!
1n
13
0l
1o
#182000
0"
0d
0e
#183000
1"
1d
1e
1p
0m
0H
1I
0q
0n
12
03
0o
1l
1q
1r
1o
0r
#184000
0"
0d
0e
#185000
1"
1d
1e
1m
1H
1n
13
0l
0q
0o
1r
#186000
0"
0d
0e
#187000
1"
1d
1e
1s
0p
0m
0H
0I
1J
1J!
1t
1P!
1q
0n
11
02
03
0r
1o
1l
1T!
0t
1u
1r
0o
1U!
0u
#188000
0"
0d
0e
#189000
1"
1d
1e
1w!
0s!
0p!
0s
0J
0X
0Y
1Z
0|!
1x!
0u!
1n!
1t!
1m!
0q!
1g
0J!
1>
0?
0@
01
1r!
0r
1,"
0x!
1u!
0T!
1y!
0v!
0r!
0U!
10"
0y!
#190000
0"
0d
0e
#191000
1"
1d
1e
1m
1H
0P!
1n
13
0l
1o
#192000
0"
0d
0e
#193000
1"
1d
1e
1p
0m
0H
1I
0q
0n
12
03
0o
1l
1q
1r
1o
0r
#194000
0"
0d
0e
#195000
1"
1d
1e
1m
1H
1n
13
0l
0q
0o
1r
#196000
0"
0d
0e
#197000
1"
1d
1e
1s
0p
0m
0H
0I
1J
1J!
1t
1P!
1q
0n
11
02
03
0r
1o
1l
1T!
0t
1u
1r
0o
1U!
0u
#198000
0"
0d
0e
#199000
1"
1d
1e
11"
0w!
0s
0J
0Z
1G
1|!
0u!
0n!
0J!
14
0>
01
0r
0T!
1o!
0U!
#200000
0"
0d
0e
#201000
1"
1d
1e
1m
1H
0P!
1n
13
0l
1o
#202000
0"
0d
0e
#203000
1"
1d
1e
1p
0m
0H
1I
0q
0n
12
03
0o
1l
1q
1r
1o
0r
#204000
0"
0d
0e
#205000
1"
1d
1e
1m
1H
1n
13
0l
0q
0o
1r
#206000
0"
0d
0e
#207000
1"
1d
1e
1s
0p
0m
0H
0I
1J
1J!
1t
1P!
1q
0n
11
02
03
0r
1o
1l
1T!
0t
1u
1r
0o
1U!
0u
#208000
0"
0d
0e
#209000
1"
1d
1e
1p!
0s
0J
1X
0m!
1q!
0g
0J!
1@
01
0r
0T!
0o!
1r!
0U!
#210000
0"
0d
0e
#211000
1"
1d
1e
1m
1H
0P!
1n
13
0l
1o
#212000
0"
0d
0e
#213000
1"
1d
1e
1p
0m
0H
1I
0q
0n
12
03
0o
1l
1q
1r
1o
0r
#214000
0"
0d
0e
#215000
1"
1d
1e
1m
1H
1n
13
0l
0q
0o
1r
#216000
0"
0d
0e
#217000
1"
1d
1e
1s
0p
0m
0H
0I
1J
1J!
1t
1P!
1q
0n
11
02
03
0r
1o
1l
1T!
0t
1u
1r
0o
1U!
0u
#218000
0"
0d
0e
#219000
1"
1d
1e
1s!
0p!
0s
0J
0X
1Y
1'"
0t!
0q!
1g
0J!
1?
0@
01
0r!
0r
1("
1u!
1t!
0T!
1r!
1o!
0u!
0U!
00"
1v!
0v!
#220000
0"
0d
0e
#221000
1"
1d
1e
1m
1H
0P!
1n
13
0l
1o
#222000
0"
0d
0e
#223000
1"
1d
1e
1p
0m
0H
1I
0q
0n
12
03
0o
1l
1q
1r
1o
0r
#224000
0"
0d
0e
#225000
1"
1d
1e
1m
1H
1n
13
0l
0q
0o
1r
#226000
0"
0d
0e
#227000
1"
1d
1e
1s
0p
0m
0H
0I
1J
1J!
1t
1P!
1q
0n
11
02
03
0r
1o
1l
1T!
0t
1u
1r
0o
1U!
0u
#228000
0"
0d
0e
#229000
1"
1d
1e
01"
1p!
0s
0J
1X
0G
0,"
0'"
1q!
0g
0J!
04
1@
01
0r
0("
0t!
0T!
0r!
0o!
1u!
0U!
1v!
#230000
0"
0d
0e
#231000
1"
1d
1e
1m
1H
0P!
1n
13
0l
1o
#232000
0"
0d
0e
#233000
1"
1d
1e
1p
0m
0H
1I
0q
0n
12
03
0o
1l
1q
1r
1o
0r
#234000
0"
0d
0e
#235000
1"
1d
1e
1m
1H
1n
13
0l
0q
0o
1r
#236000
0"
0d
0e
#237000
1"
1d
1e
1s
0p
0m
0H
0I
1J
1J!
1t
1P!
1q
0n
11
02
03
0r
1o
1l
1T!
0t
1u
1r
0o
1U!
0u
#238000
0"
0d
0e
#239000
1"
1d
1e
1w!
0s!
0p!
0s
0J
0X
0Y
1Z
0|!
1x!
0u!
1n!
1t!
1m!
0q!
1g
0J!
1>
0?
0@
01
1r!
0r
1,"
0x!
1u!
0T!
1y!
0v!
0r!
0U!
10"
0y!
#240000
0"
0d
0e
#241000
1"
1d
1e
1m
1H
0P!
1n
13
0l
1o
#242000
0"
0d
0e
#243000
1"
1d
1e
1p
0m
0H
1I
0q
0n
12
03
0o
1l
1q
1r
1o
0r
#244000
0"
0d
0e
#245000
1"
1d
1e
1m
1H
1n
13
0l
0q
0o
1r
#246000
0"
0d
0e
#247000
1"
1d
1e
1s
0p
0m
0H
0I
1J
1J!
1t
1P!
1q
0n
11
02
03
0r
1o
1l
1T!
0t
1u
1r
0o
1U!
0u
#248000
0"
0d
0e
#249000
1"
1d
1e
11"
0w!
0s
0J
0Z
1G
1|!
0u!
0n!
0J!
14
0>
01
0r
0T!
1o!
0U!
#250000
0"
0d
0e
#251000
1"
1d
1e
1m
1H
0P!
1n
13
0l
1o
#252000
0"
0d
0e
#253000
1"
1d
1e
1p
0m
0H
1I
0q
0n
12
03
0o
1l
1q
1r
1o
0r
#254000
0"
0d
0e
#255000
1"
1d
1e
1m
1H
1n
13
0l
0q
0o
1r
#256000
0"
0d
0e
#257000
1"
1d
1e
1s
0p
0m
0H
0I
1J
1J!
1t
1P!
1q
0n
11
02
03
0r
1o
1l
1T!
0t
1u
1r
0o
1U!
0u
#258000
0"
0d
0e
#259000
1"
1d
1e
1p!
0s
0J
1X
0m!
1q!
0g
0J!
1@
01
0r
0T!
0o!
1r!
0U!
