Hardware/Ultrasonido/Quartus/simulation/qsim/Ultrasonido.msim.vcd
$comment
	File created using the following command:
		vcd file Ultrasonido.msim.vcd -direction
$end
$date
	Thu May 27 00:53:31 2021
$end
$version
	ModelSim Version 2020.1
$end
$timescale
	1ps
$end

$scope module Ultrasonido_vlg_vec_tst $end
$var reg 1 ! Clock $end
$var reg 1 " Echo $end
$var reg 1 # Inicio $end
$var reg 1 $ Reset $end
$var wire 1 % Distancia [8] $end
$var wire 1 & Distancia [7] $end
$var wire 1 ' Distancia [6] $end
$var wire 1 ( Distancia [5] $end
$var wire 1 ) Distancia [4] $end
$var wire 1 * Distancia [3] $end
$var wire 1 + Distancia [2] $end
$var wire 1 , Distancia [1] $end
$var wire 1 - Distancia [0] $end
$var wire 1 . Done $end
$var wire 1 / Trigger $end

$scope module i1 $end
$var wire 1 0 gnd $end
$var wire 1 1 vcc $end
$var wire 1 2 unknown $end
$var tri1 1 3 devclrn $end
$var tri1 1 4 devpor $end
$var tri1 1 5 devoe $end
$var wire 1 6 Done~output_o $end
$var wire 1 7 Trigger~output_o $end
$var wire 1 8 Distancia[0]~output_o $end
$var wire 1 9 Distancia[1]~output_o $end
$var wire 1 : Distancia[2]~output_o $end
$var wire 1 ; Distancia[3]~output_o $end
$var wire 1 < Distancia[4]~output_o $end
$var wire 1 = Distancia[5]~output_o $end
$var wire 1 > Distancia[6]~output_o $end
$var wire 1 ? Distancia[7]~output_o $end
$var wire 1 @ Distancia[8]~output_o $end
$var wire 1 A Reset~input_o $end
$var wire 1 B Clock~input_o $end
$var wire 1 C Clock~inputclkctrl_outclk $end
$var wire 1 D CLK1M|Contador~4_combout $end
$var wire 1 E CLK1M|Contador~2_combout $end
$var wire 1 F CLK1M|Add0~0_combout $end
$var wire 1 G CLK1M|Equal0~1_combout $end
$var wire 1 H CLK1M|Contador~3_combout $end
$var wire 1 I CLK1M|Add0~1_combout $end
$var wire 1 J CLK1M|Contador~1_combout $end
$var wire 1 K CLK1M|Equal0~0_combout $end
$var wire 1 L CLK1M|Contador~0_combout $end
$var wire 1 M CLK1M|Clock1M~0_combout $end
$var wire 1 N CLK1M|Clock1M~q $end
$var wire 1 O Distance|Varclock~combout $end
$var wire 1 P Distance|Varclock~clkctrl_outclk $end
$var wire 1 Q Pulse|VarClock~combout $end
$var wire 1 R Pulse|VarClock~clkctrl_outclk $end
$var wire 1 S Control|EnablGenPulsos~0_combout $end
$var wire 1 T Control|EnablGenPulsos~q $end
$var wire 1 U Pulse|Contador~7_combout $end
$var wire 1 V Pulse|Done~2_combout $end
$var wire 1 W Pulse|Contador~6_combout $end
$var wire 1 X Pulse|Contador~4_combout $end
$var wire 1 Y Pulse|Contador~5_combout $end
$var wire 1 Z Pulse|Contador~8_combout $end
$var wire 1 [ Pulse|Equal0~0_combout $end
$var wire 1 \ Pulse|Done~3_combout $end
$var wire 1 ] Pulse|Done~q $end
$var wire 1 ^ Inicio~input_o $end
$var wire 1 _ Control|Status~13_combout $end
$var wire 1 ` Control|Status.00~q $end
$var wire 1 a Control|Status~10_combout $end
$var wire 1 b Control|Status~11_combout $end
$var wire 1 c Control|Status.Distancia~q $end
$var wire 1 d Control|Status~8_combout $end
$var wire 1 e Control|Status~9_combout $end
$var wire 1 f Control|Status~12_combout $end
$var wire 1 g Control|Status.Pulso~q $end
$var wire 1 h Control|ClearDistancia~0_combout $end
$var wire 1 i Control|ClearDistancia~q $end
$var wire 1 j Echo~input_o $end
$var wire 1 k Distance|Add0~19_combout $end
$var wire 1 l Distance|Add0~20_combout $end
$var wire 1 m Distance|Contador~9_combout $end
$var wire 1 n Distance|Add0~21_combout $end
$var wire 1 o Distance|Add0~13 $end
$var wire 1 p Distance|Add0~15_combout $end
$var wire 1 q Distance|Contador~10_combout $end
$var wire 1 r Distance|Add0~16 $end
$var wire 1 s Distance|Add0~17_combout $end
$var wire 1 t Distance|Equal1~3_combout $end
$var wire 1 u Distance|Equal1~4_combout $end
$var wire 1 v Control|EnableDistancia~0_combout $end
$var wire 1 w Control|EnableDistancia~q $end
$var wire 1 x Distance|Contador~3_combout $end
$var wire 1 y Distance|Add0~6_combout $end
$var wire 1 z Distance|Contador~2_combout $end
$var wire 1 { Distance|Contador~11_combout $end
$var wire 1 | Distance|Equal1~0_combout $end
$var wire 1 } Distance|Equal1~1_combout $end
$var wire 1 ~ Distance|Contador[0]~4_combout $end
$var wire 1 !! Distance|Add0~7 $end
$var wire 1 "! Distance|Add0~8_combout $end
$var wire 1 #! Distance|Add0~22_combout $end
$var wire 1 $! Distance|Add0~23_combout $end
$var wire 1 %! Distance|Contador~7_combout $end
$var wire 1 &! Distance|Add0~9 $end
$var wire 1 '! Distance|Add0~10_combout $end
$var wire 1 (! Distance|Contador~5_combout $end
$var wire 1 )! Distance|Contador~6_combout $end
$var wire 1 *! Distance|Add0~11 $end
$var wire 1 +! Distance|Add0~12_combout $end
$var wire 1 ,! Distance|Add0~14_combout $end
$var wire 1 -! Distance|Contador~8_combout $end
$var wire 1 .! Distance|Equal1~2_combout $end
$var wire 1 /! Distance|Distancia~1_combout $end
$var wire 1 0! Distance|Add1~0_combout $end
$var wire 1 1! Distance|Distancia~0_combout $end
$var wire 1 2! Distance|Add1~1 $end
$var wire 1 3! Distance|Add1~2_combout $end
$var wire 1 4! Distance|Add1~3 $end
$var wire 1 5! Distance|Add1~4_combout $end
$var wire 1 6! Distance|Add1~5 $end
$var wire 1 7! Distance|Add1~6_combout $end
$var wire 1 8! Distance|Add1~7 $end
$var wire 1 9! Distance|Add1~8_combout $end
$var wire 1 :! Distance|Add1~9 $end
$var wire 1 ;! Distance|Add1~10_combout $end
$var wire 1 <! Distance|Add1~11 $end
$var wire 1 =! Distance|Add1~12_combout $end
$var wire 1 >! Distance|Add1~13 $end
$var wire 1 ?! Distance|Add1~14_combout $end
$var wire 1 @! Distance|Add1~15 $end
$var wire 1 A! Distance|Add1~16_combout $end
$var wire 1 B! Distance|Equal0~0_combout $end
$var wire 1 C! Distance|Equal0~1_combout $end
$var wire 1 D! Distance|Equal0~2_combout $end
$var wire 1 E! Distance|Done~0_combout $end
$var wire 1 F! Distance|Done~1_combout $end
$var wire 1 G! Distance|Done~q $end
$var wire 1 H! Pulse|Trigger~2_combout $end
$var wire 1 I! Pulse|Trigger~3_combout $end
$var wire 1 J! Pulse|Trigger~q $end
$var wire 1 K! Distance|Distancia [8] $end
$var wire 1 L! Distance|Distancia [7] $end
$var wire 1 M! Distance|Distancia [6] $end
$var wire 1 N! Distance|Distancia [5] $end
$var wire 1 O! Distance|Distancia [4] $end
$var wire 1 P! Distance|Distancia [3] $end
$var wire 1 Q! Distance|Distancia [2] $end
$var wire 1 R! Distance|Distancia [1] $end
$var wire 1 S! Distance|Distancia [0] $end
$var wire 1 T! Pulse|Contador [3] $end
$var wire 1 U! Pulse|Contador [2] $end
$var wire 1 V! Pulse|Contador [1] $end
$var wire 1 W! Pulse|Contador [0] $end
$var wire 1 X! CLK1M|Contador [4] $end
$var wire 1 Y! CLK1M|Contador [3] $end
$var wire 1 Z! CLK1M|Contador [2] $end
$var wire 1 [! CLK1M|Contador [1] $end
$var wire 1 \! CLK1M|Contador [0] $end
$var wire 1 ]! Distance|Contador [5] $end
$var wire 1 ^! Distance|Contador [4] $end
$var wire 1 _! Distance|Contador [3] $end
$var wire 1 `! Distance|Contador [2] $end
$var wire 1 a! Distance|Contador [1] $end
$var wire 1 b! Distance|Contador [0] $end
$upscope $end
$upscope $end
$enddefinitions $end
#0
$dumpvars
0!
0"
1#
0$
0-
0,
0+
0*
0)
0(
0'
0&
0%
0.
0/
00
11
x2
13
14
15
06
07
08
09
0:
0;
0<
0=
0>
0?
0@
0A
0B
0C
0D
0E
0F
1G
1H
0I
0J
1K
0L
0M
0N
0O
0P
0Q
0R
0S
0T
0U
0V
0W
0X
0Y
0Z
0[
0\
0]
1^
1_
0`
0a
0b
0c
1d
1e
1f
0g
0h
0i
0j
1k
0l
0m
0n
1o
0p
0q
0r
0s
1t
1u
0v
0w
0x
1y
0z
0{
0|
0}
0~
0!!
0"!
0#!
0$!
0%!
1&!
0'!
0(!
0)!
0*!
0+!
0,!
0-!
1.!
0/!
00!
01!
02!
03!
14!
05!
06!
07!
18!
09!
0:!
0;!
1<!
0=!
0>!
0?!
1@!
0A!
1B!
1C!
1D!
0E!
0F!
0G!
1H!
0I!
0J!
0S!
0R!
0Q!
0P!
0O!
0N!
0M!
0L!
0K!
0W!
0V!
0U!
0T!
0\!
0[!
0Z!
0Y!
0X!
0b!
0a!
0`!
0_!
0^!
0]!
$end
#1000
1!
1B
1C
1g
1`
1\!
1h
1S
0H
1D
#2000
0!
0B
0C
#3000
1!
1B
1C
1i
1T
0\!
1[!
0k
1V
1I!
1U
1H
#4000
0!
0B
0C
#5000
1!
1B
1C
1\!
0H
1E
0D
#6000
0!
0B
0C
#7000
1!
1B
1C
0\!
1Z!
0[!
1H
#8000
0!
0B
0C
#9000
1!
1B
1C
1\!
0H
1D
#10000
0!
0B
0C
#11000
1!
1B
1C
0\!
1[!
1H
#12000
0!
0B
0C
#13000
1!
1B
1C
1\!
1I
0H
0E
0D
1J
#14000
0!
0B
0C
#15000
1!
1B
1C
1Y!
0\!
0Z!
0[!
0K
1H
#16000
0!
0B
0C
#17000
1!
1B
1C
1\!
1K
0H
1D
#18000
0!
0B
0C
#19000
1!
1B
1C
0\!
1[!
1H
#20000
0!
0B
0C
#21000
1!
1B
1C
1\!
0H
1E
0D
#22000
0!
0B
0C
#23000
1!
1B
1C
0\!
1Z!
0[!
1H
#24000
0!
0B
0C
#25000
1!
1B
1C
1\!
0H
1D
#26000
0!
0B
0C
#27000
1!
1B
1C
0\!
1[!
1H
#28000
0!
0B
0C
#29000
1!
1B
1C
1\!
0I
1F
0H
0E
0D
0J
1L
#30000
0!
0B
0C
#31000
1!
1B
1C
1X!
0Y!
0\!
0Z!
0[!
0F
0L
1H
1L
#32000
0!
0B
0C
#33000
1!
1B
1C
1\!
0H
1D
#34000
0!
0B
0C
#35000
1!
1B
1C
0\!
1[!
1H
#36000
0!
0B
0C
#37000
1!
1B
1C
1\!
0H
1E
0D
#38000
0!
0B
0C
#39000
1!
1B
1C
0\!
1Z!
0[!
1H
#40000
0!
0B
0C
#41000
1!
1B
1C
1\!
0H
1D
#42000
0!
0B
0C
#43000
1!
1B
1C
0\!
1[!
1H
#44000
0!
0B
0C
#45000
1!
1B
1C
1\!
1I
0H
0E
0D
1J
#46000
0!
0B
0C
#47000
1!
1B
1C
1Y!
0\!
0Z!
0[!
0K
1H
0G
1M
0L
0J
0H
#48000
0!
0B
0C
#49000
1!
1B
1C
1N
0X!
0Y!
1Q
1O
1G
1K
0I
1P
1R
1H
1W!
1J!
17
1/
1W
0U
#50000
0!
0B
0C
#51000
1!
1B
1C
1\!
0H
1D
#52000
0!
0B
0C
#53000
1!
1B
1C
0\!
1[!
1H
#54000
0!
0B
0C
#55000
1!
1B
1C
1\!
0H
1E
0D
#56000
0!
0B
0C
#57000
1!
1B
1C
0\!
1Z!
0[!
1H
#58000
0!
0B
0C
#59000
1!
1B
1C
1\!
0H
1D
#60000
0!
0B
0C
#61000
1!
1B
1C
0\!
1[!
1H
#62000
0!
0B
0C
#63000
1!
1B
1C
1\!
1I
0H
0E
0D
1J
#64000
0!
0B
0C
#65000
1!
1B
1C
1Y!
0\!
0Z!
0[!
0K
1H
#66000
0!
0B
0C
#67000
1!
1B
1C
1\!
1K
0H
1D
#68000
0!
0B
0C
#69000
1!
1B
1C
0\!
1[!
1H
#70000
0!
0B
0C
#71000
1!
1B
1C
1\!
0H
1E
0D
#72000
0!
0B
0C
#73000
1!
1B
1C
0\!
1Z!
0[!
1H
#74000
0!
0B
0C
#75000
1!
1B
1C
1\!
0H
1D
#76000
0!
0B
0C
#77000
1!
1B
1C
0\!
1[!
1H
#78000
0!
0B
0C
#79000
1!
1B
1C
1\!
0I
1F
0H
0E
0D
0J
1L
#80000
0!
0B
0C
#81000
1!
1B
1C
1X!
0Y!
0\!
0Z!
0[!
0F
0L
1H
1L
#82000
0!
0B
0C
#83000
1!
1B
1C
1\!
0H
1D
#84000
0!
0B
0C
#85000
1!
1B
1C
0\!
1[!
1H
#86000
0!
0B
0C
#87000
1!
1B
1C
1\!
0H
1E
0D
#88000
0!
0B
0C
#89000
1!
1B
1C
0\!
1Z!
0[!
1H
#90000
0!
0B
0C
#91000
1!
1B
1C
1\!
0H
1D
#92000
0!
0B
0C
#93000
1!
1B
1C
0\!
1[!
1H
#94000
0!
0B
0C
#95000
1!
1B
1C
1\!
1I
0H
0E
0D
1J
#96000
0!
0B
0C
#97000
1!
1B
1C
1Y!
0\!
0Z!
0[!
0K
1H
0G
0M
0L
0J
0H
#98000
0!
0B
0C
#99000
1!
1B
1C
0N
0X!
0Y!
0Q
0O
1G
1K
0I
0P
0R
1H
#100000
0!
0B
0C
#101000
1!
1B
1C
1\!
0H
1D
#102000
0!
0B
0C
#103000
1!
1B
1C
0\!
1[!
1H
#104000
0!
0B
0C
#105000
1!
1B
1C
1\!
0H
1E
0D
#106000
0!
0B
0C
#107000
1!
1B
1C
0\!
1Z!
0[!
1H
#108000
0!
0B
0C
#109000
1!
1B
1C
1\!
0H
1D
#110000
0!
0B
0C
#111000
1!
1B
1C
0\!
1[!
1H
#112000
0!
0B
0C
#113000
1!
1B
1C
1\!
1I
0H
0E
0D
1J
#114000
0!
0B
0C
#115000
1!
1B
1C
1Y!
0\!
0Z!
0[!
0K
1H
#116000
0!
0B
0C
#117000
1!
1B
1C
1\!
1K
0H
1D
#118000
0!
0B
0C
#119000
1!
1B
1C
0\!
1[!
1H
#120000
0!
0B
0C
#121000
1!
1B
1C
1\!
0H
1E
0D
#122000
0!
0B
0C
#123000
1!
1B
1C
0\!
1Z!
0[!
1H
#124000
0!
0B
0C
#125000
1!
1B
1C
1\!
0H
1D
#126000
0!
0B
0C
#127000
1!
1B
1C
0\!
1[!
1H
#128000
0!
0B
0C
#129000
1!
1B
1C
1\!
0I
1F
0H
0E
0D
0J
1L
#130000
0!
0B
0C
#131000
1!
1B
1C
1X!
0Y!
0\!
0Z!
0[!
0F
0L
1H
1L
#132000
0!
0B
0C
#133000
1!
1B
1C
1\!
0H
1D
#134000
0!
0B
0C
#135000
1!
1B
1C
0\!
1[!
1H
#136000
0!
0B
0C
#137000
1!
1B
1C
1\!
0H
1E
0D
#138000
0!
0B
0C
#139000
1!
1B
1C
0\!
1Z!
0[!
1H
#140000
0!
0B
0C
#141000
1!
1B
1C
1\!
0H
1D
#142000
0!
0B
0C
#143000
1!
1B
1C
0\!
1[!
1H
#144000
0!
0B
0C
#145000
1!
1B
1C
1\!
1I
0H
0E
0D
1J
#146000
0!
0B
0C
#147000
1!
1B
1C
1Y!
0\!
0Z!
0[!
0K
1H
0G
1M
0L
0J
0H
#148000
0!
0B
0C
#149000
1!
1B
1C
1N
0X!
0Y!
1Q
1O
1G
1K
0I
1P
1R
1H
1V!
0W!
1U
#150000
0!
0B
0C
#151000
1!
1B
1C
1\!
0H
1D
#152000
0!
0B
0C
#153000
1!
1B
1C
0\!
1[!
1H
#154000
0!
0B
0C
#155000
1!
1B
1C
1\!
0H
1E
0D
#156000
0!
0B
0C
#157000
1!
1B
1C
0\!
1Z!
0[!
1H
#158000
0!
0B
0C
#159000
1!
1B
1C
1\!
0H
1D
#160000
0!
0B
0C
#161000
1!
1B
1C
0\!
1[!
1H
#162000
0!
0B
0C
#163000
1!
1B
1C
1\!
1I
0H
0E
0D
1J
#164000
0!
0B
0C
#165000
1!
1B
1C
1Y!
0\!
0Z!
0[!
0K
1H
#166000
0!
0B
0C
#167000
1!
1B
1C
1\!
1K
0H
1D
#168000
0!
0B
0C
#169000
1!
1B
1C
0\!
1[!
1H
#170000
0!
0B
0C
#171000
1!
1B
1C
1\!
0H
1E
0D
#172000
0!
0B
0C
#173000
1!
1B
1C
0\!
1Z!
0[!
1H
#174000
0!
0B
0C
#175000
1!
1B
1C
1\!
0H
1D
#176000
0!
0B
0C
#177000
1!
1B
1C
0\!
1[!
1H
#178000
0!
0B
0C
#179000
1!
1B
1C
1\!
0I
1F
0H
0E
0D
0J
1L
#180000
0!
0B
0C
#181000
1!
1B
1C
1X!
0Y!
0\!
0Z!
0[!
0F
0L
1H
1L
#182000
0!
0B
0C
#183000
1!
1B
1C
1\!
0H
1D
#184000
0!
0B
0C
#185000
1!
1B
1C
0\!
1[!
1H
#186000
0!
0B
0C
#187000
1!
1B
1C
1\!
0H
1E
0D
#188000
0!
0B
0C
#189000
1!
1B
1C
0\!
1Z!
0[!
1H
#190000
0!
0B
0C
#191000
1!
1B
1C
1\!
0H
1D
#192000
0!
0B
0C
#193000
1!
1B
1C
0\!
1[!
1H
#194000
0!
0B
0C
#195000
1!
1B
1C
1\!
1I
0H
0E
0D
1J
#196000
0!
0B
0C
#197000
1!
1B
1C
1Y!
0\!
0Z!
0[!
0K
1H
0G
0M
0L
0J
0H
#198000
0!
0B
0C
#199000
1!
1B
1C
0N
0X!
0Y!
0Q
0O
1G
1K
0I
0P
0R
1H
#200000
0!
0B
0C
#201000
1!
1B
1C
1\!
0H
1D
#202000
0!
0B
0C
#203000
1!
1B
1C
0\!
1[!
1H
#204000
0!
0B
0C
#205000
1!
1B
1C
1\!
0H
1E
0D
#206000
0!
0B
0C
#207000
1!
1B
1C
0\!
1Z!
0[!
1H
#208000
0!
0B
0C
#209000
1!
1B
1C
1\!
0H
1D
#210000
0!
0B
0C
#211000
1!
1B
1C
0\!
1[!
1H
#212000
0!
0B
0C
#213000
1!
1B
1C
1\!
1I
0H
0E
0D
1J
#214000
0!
0B
0C
#215000
1!
1B
1C
1Y!
0\!
0Z!
0[!
0K
1H
#216000
0!
0B
0C
#217000
1!
1B
1C
1\!
1K
0H
1D
#218000
0!
0B
0C
#219000
1!
1B
1C
0\!
1[!
1H
#220000
0!
0B
0C
#221000
1!
1B
1C
1\!
0H
1E
0D
#222000
0!
0B
0C
#223000
1!
1B
1C
0\!
1Z!
0[!
1H
#224000
0!
0B
0C
#225000
1!
1B
1C
1\!
0H
1D
#226000
0!
0B
0C
#227000
1!
1B
1C
0\!
1[!
1H
#228000
0!
0B
0C
#229000
1!
1B
1C
1\!
0I
1F
0H
0E
0D
0J
1L
#230000
0!
0B
0C
#231000
1!
1B
1C
1X!
0Y!
0\!
0Z!
0[!
0F
0L
1H
1L
#232000
0!
0B
0C
#233000
1!
1B
1C
1\!
0H
1D
#234000
0!
0B
0C
#235000
1!
1B
1C
0\!
1[!
1H
#236000
0!
0B
0C
#237000
1!
1B
1C
1\!
0H
1E
0D
#238000
0!
0B
0C
#239000
1!
1B
1C
0\!
1Z!
0[!
1H
#240000
0!
0B
0C
#241000
1!
1B
1C
1\!
0H
1D
#242000
0!
0B
0C
#243000
1!
1B
1C
0\!
1[!
1H
#244000
0!
0B
0C
#245000
1!
1B
1C
1\!
1I
0H
0E
0D
1J
#246000
0!
0B
0C
#247000
1!
1B
1C
1Y!
0\!
0Z!
0[!
0K
1H
0G
1M
0L
0J
0H
#248000
0!
0B
0C
#249000
1!
1B
1C
1N
0X!
0Y!
1Q
1O
1G
1K
0I
1P
1R
1H
1W!
1X
0W
0U
#250000
0!
0B
0C
#251000
1!
1B
1C
1\!
0H
1D
#252000
0!
0B
0C
#253000
1!
1B
1C
0\!
1[!
1H
#254000
0!
0B
0C
#255000
1!
1B
1C
1\!
0H
1E
0D
#256000
0!
0B
0C
#257000
1!
1B
1C
0\!
1Z!
0[!
1H
#258000
0!
0B
0C
#259000
1!
1B
1C
1\!
0H
1D
#260000
0!
0B
0C
#261000
1!
1B
1C
0\!
1[!
1H
#262000
0!
0B
0C
#263000
1!
1B
1C
1\!
1I
0H
0E
0D
1J
#264000
0!
0B
0C
#265000
1!
1B
1C
1Y!
0\!
0Z!
0[!
0K
1H
#266000
0!
0B
0C
#267000
1!
1B
1C
1\!
1K
0H
1D
#268000
0!
0B
0C
#269000
1!
1B
1C
0\!
1[!
1H
#270000
0!
0B
0C
#271000
1!
1B
1C
1\!
0H
1E
0D
#272000
0!
0B
0C
#273000
1!
1B
1C
0\!
1Z!
0[!
1H
#274000
0!
0B
0C
#275000
1!
1B
1C
1\!
0H
1D
#276000
0!
0B
0C
#277000
1!
1B
1C
0\!
1[!
1H
#278000
0!
0B
0C
#279000
1!
1B
1C
1\!
0I
1F
0H
0E
0D
0J
1L
#280000
0!
0B
0C
#281000
1!
1B
1C
1X!
0Y!
0\!
0Z!
0[!
0F
0L
1H
1L
#282000
0!
0B
0C
#283000
1!
1B
1C
1\!
0H
1D
#284000
0!
0B
0C
#285000
1!
1B
1C
0\!
1[!
1H
#286000
0!
0B
0C
#287000
1!
1B
1C
1\!
0H
1E
0D
#288000
0!
0B
0C
#289000
1!
1B
1C
0\!
1Z!
0[!
1H
#290000
0!
0B
0C
#291000
1!
1B
1C
1\!
0H
1D
#292000
0!
0B
0C
#293000
1!
1B
1C
0\!
1[!
1H
#294000
0!
0B
0C
#295000
1!
1B
1C
1\!
1I
0H
0E
0D
1J
#296000
0!
0B
0C
#297000
1!
1B
1C
1Y!
0\!
0Z!
0[!
0K
1H
0G
0M
0L
0J
0H
#298000
0!
0B
0C
#299000
1!
1B
1C
0N
0X!
0Y!
0Q
0O
1G
1K
0I
0P
0R
1H
#300000
0!
0B
0C
#301000
1!
1B
1C
1\!
0H
1D
#302000
0!
0B
0C
#303000
1!
1B
1C
0\!
1[!
1H
#304000
0!
0B
0C
#305000
1!
1B
1C
1\!
0H
1E
0D
#306000
0!
0B
0C
#307000
1!
1B
1C
0\!
1Z!
0[!
1H
#308000
0!
0B
0C
#309000
1!
1B
1C
1\!
0H
1D
#310000
0!
0B
0C
#311000
1!
1B
1C
0\!
1[!
1H
#312000
0!
0B
0C
#313000
1!
1B
1C
1\!
1I
0H
0E
0D
1J
#314000
0!
0B
0C
#315000
1!
1B
1C
1Y!
0\!
0Z!
0[!
0K
1H
#316000
0!
0B
0C
#317000
1!
1B
1C
1\!
1K
0H
1D
#318000
0!
0B
0C
#319000
1!
1B
1C
0\!
1[!
1H
#320000
0!
0B
0C
#321000
1!
1B
1C
1\!
0H
1E
0D
#322000
0!
0B
0C
#323000
1!
1B
1C
0\!
1Z!
0[!
1H
#324000
0!
0B
0C
#325000
1!
1B
1C
1\!
0H
1D
#326000
0!
0B
0C
#327000
1!
1B
1C
0\!
1[!
1H
#328000
0!
0B
0C
#329000
1!
1B
1C
1\!
0I
1F
0H
0E
0D
0J
1L
#330000
0!
0B
0C
#331000
1!
1B
1C
1X!
0Y!
0\!
0Z!
0[!
0F
0L
1H
1L
#332000
0!
0B
0C
#333000
1!
1B
1C
1\!
0H
1D
#334000
0!
0B
0C
#335000
1!
1B
1C
0\!
1[!
1H
#336000
0!
0B
0C
#337000
1!
1B
1C
1\!
0H
1E
0D
#338000
0!
0B
0C
#339000
1!
1B
1C
0\!
1Z!
0[!
1H
#340000
0!
0B
0C
#341000
1!
1B
1C
1\!
0H
1D
#342000
0!
0B
0C
#343000
1!
1B
1C
0\!
1[!
1H
#344000
0!
0B
0C
#345000
1!
1B
1C
1\!
1I
0H
0E
0D
1J
#346000
0!
0B
0C
#347000
1!
1B
1C
1Y!
0\!
0Z!
0[!
0K
1H
0G
1M
0L
0J
0H
#348000
0!
0B
0C
#349000
1!
1B
1C
1N
0X!
0Y!
1Q
1O
1G
1K
0I
1P
1R
1H
1U!
0V!
0W!
1U
#350000
0!
0B
0C
#351000
1!
1B
1C
1\!
0H
1D
#352000
0!
0B
0C
#353000
1!
1B
1C
0\!
1[!
1H
#354000
0!
0B
0C
#355000
1!
1B
1C
1\!
0H
1E
0D
#356000
0!
0B
0C
#357000
1!
1B
1C
0\!
1Z!
0[!
1H
#358000
0!
0B
0C
#359000
1!
1B
1C
1\!
0H
1D
#360000
0!
0B
0C
#361000
1!
1B
1C
0\!
1[!
1H
#362000
0!
0B
0C
#363000
1!
1B
1C
1\!
1I
0H
0E
0D
1J
#364000
0!
0B
0C
#365000
1!
1B
1C
1Y!
0\!
0Z!
0[!
0K
1H
#366000
0!
0B
0C
#367000
1!
1B
1C
1\!
1K
0H
1D
#368000
0!
0B
0C
#369000
1!
1B
1C
0\!
1[!
1H
#370000
0!
0B
0C
#371000
1!
1B
1C
1\!
0H
1E
0D
#372000
0!
0B
0C
#373000
1!
1B
1C
0\!
1Z!
0[!
1H
#374000
0!
0B
0C
#375000
1!
1B
1C
1\!
0H
1D
#376000
0!
0B
0C
#377000
1!
1B
1C
0\!
1[!
1H
#378000
0!
0B
0C
#379000
1!
1B
1C
1\!
0I
1F
0H
0E
0D
0J
1L
#380000
0!
0B
0C
#381000
1!
1B
1C
1X!
0Y!
0\!
0Z!
0[!
0F
0L
1H
1L
#382000
0!
0B
0C
#383000
1!
1B
1C
1\!
0H
1D
#384000
0!
0B
0C
#385000
1!
1B
1C
0\!
1[!
1H
#386000
0!
0B
0C
#387000
1!
1B
1C
1\!
0H
1E
0D
#388000
0!
0B
0C
#389000
1!
1B
1C
0\!
1Z!
0[!
1H
#390000
0!
0B
0C
#391000
1!
1B
1C
1\!
0H
1D
#392000
0!
0B
0C
#393000
1!
1B
1C
0\!
1[!
1H
#394000
0!
0B
0C
#395000
1!
1B
1C
1\!
1I
0H
0E
0D
1J
#396000
0!
0B
0C
#397000
1!
1B
1C
1Y!
0\!
0Z!
0[!
0K
1H
0G
0M
0L
0J
0H
#398000
0!
0B
0C
#399000
1!
1B
1C
0N
0X!
0Y!
0Q
0O
1G
1K
0I
0P
0R
1H
#400000
0!
0B
0C
#401000
1!
1B
1C
1\!
0H
1D
#402000
0!
0B
0C
#403000
1!
1B
1C
0\!
1[!
1H
#404000
0!
0B
0C
#405000
1!
1B
1C
1\!
0H
1E
0D
#406000
0!
0B
0C
#407000
1!
1B
1C
0\!
1Z!
0[!
1H
#408000
0!
0B
0C
#409000
1!
1B
1C
1\!
0H
1D
#410000
0!
0B
0C
#411000
1!
1B
1C
0\!
1[!
1H
#412000
0!
0B
0C
#413000
1!
1B
1C
1\!
1I
0H
0E
0D
1J
#414000
0!
0B
0C
#415000
1!
1B
1C
1Y!
0\!
0Z!
0[!
0K
1H
#416000
0!
0B
0C
#417000
1!
1B
1C
1\!
1K
0H
1D
#418000
0!
0B
0C
#419000
1!
1B
1C
0\!
1[!
1H
#420000
0!
0B
0C
#421000
1!
1B
1C
1\!
0H
1E
0D
#422000
0!
0B
0C
#423000
1!
1B
1C
0\!
1Z!
0[!
1H
#424000
0!
0B
0C
#425000
1!
1B
1C
1\!
0H
1D
#426000
0!
0B
0C
#427000
1!
1B
1C
0\!
1[!
1H
#428000
0!
0B
0C
#429000
1!
1B
1C
1\!
0I
1F
0H
0E
0D
0J
1L
#430000
0!
0B
0C
#431000
1!
1B
1C
1X!
0Y!
0\!
0Z!
0[!
0F
0L
1H
1L
#432000
0!
0B
0C
#433000
1!
1B
1C
1\!
0H
1D
#434000
0!
0B
0C
#435000
1!
1B
1C
0\!
1[!
1H
#436000
0!
0B
0C
#437000
1!
1B
1C
1\!
0H
1E
0D
#438000
0!
0B
0C
#439000
1!
1B
1C
0\!
1Z!
0[!
1H
#440000
0!
0B
0C
#441000
1!
1B
1C
1\!
0H
1D
#442000
0!
0B
0C
#443000
1!
1B
1C
0\!
1[!
1H
#444000
0!
0B
0C
#445000
1!
1B
1C
1\!
1I
0H
0E
0D
1J
#446000
0!
0B
0C
#447000
1!
1B
1C
1Y!
0\!
0Z!
0[!
0K
1H
0G
1M
0L
0J
0H
#448000
0!
0B
0C
#449000
1!
1B
1C
1N
0X!
0Y!
1Q
1O
1G
1K
0I
1P
1R
1H
1W!
1W
0U
#450000
0!
0B
0C
#451000
1!
1B
1C
1\!
0H
1D
#452000
0!
0B
0C
#453000
1!
1B
1C
0\!
1[!
1H
#454000
0!
0B
0C
#455000
1!
1B
1C
1\!
0H
1E
0D
#456000
0!
0B
0C
#457000
1!
1B
1C
0\!
1Z!
0[!
1H
#458000
0!
0B
0C
#459000
1!
1B
1C
1\!
0H
1D
#460000
0!
0B
0C
#461000
1!
1B
1C
0\!
1[!
1H
#462000
0!
0B
0C
#463000
1!
1B
1C
1\!
1I
0H
0E
0D
1J
#464000
0!
0B
0C
#465000
1!
1B
1C
1Y!
0\!
0Z!
0[!
0K
1H
#466000
0!
0B
0C
#467000
1!
1B
1C
1\!
1K
0H
1D
#468000
0!
0B
0C
#469000
1!
1B
1C
0\!
1[!
1H
#470000
0!
0B
0C
#471000
1!
1B
1C
1\!
0H
1E
0D
#472000
0!
0B
0C
#473000
1!
1B
1C
0\!
1Z!
0[!
1H
#474000
0!
0B
0C
#475000
1!
1B
1C
1\!
0H
1D
#476000
0!
0B
0C
#477000
1!
1B
1C
0\!
1[!
1H
#478000
0!
0B
0C
#479000
1!
1B
1C
1\!
0I
1F
0H
0E
0D
0J
1L
#480000
0!
0B
0C
#481000
1!
1B
1C
1X!
0Y!
0\!
0Z!
0[!
0F
0L
1H
1L
#482000
0!
0B
0C
#483000
1!
1B
1C
1\!
0H
1D
#484000
0!
0B
0C
#485000
1!
1B
1C
0\!
1[!
1H
#486000
0!
0B
0C
#487000
1!
1B
1C
1\!
0H
1E
0D
#488000
0!
0B
0C
#489000
1!
1B
1C
0\!
1Z!
0[!
1H
#490000
0!
0B
0C
#491000
1!
1B
1C
1\!
0H
1D
#492000
0!
0B
0C
#493000
1!
1B
1C
0\!
1[!
1H
#494000
0!
0B
0C
#495000
1!
1B
1C
1\!
1I
0H
0E
0D
1J
#496000
0!
0B
0C
#497000
1!
1B
1C
1Y!
0\!
0Z!
0[!
0K
1H
0G
0M
0L
0J
0H
