Hardware/Timmer/Quartus/simulation/qsim/Timmer.msim.vcd
$comment
	File created using the following command:
		vcd file Timmer.msim.vcd -direction
$end
$date
	Tue Jul 06 20:49:30 2021
$end
$version
	ModelSim Version 2020.1
$end
$timescale
	1ps
$end

$scope module Timmer_vlg_vec_tst $end
$var reg 1 ! Clock $end
$var reg 1 " Pause $end
$var reg 1 # Reset $end
$var reg 1 $ Start $end
$var reg 16 % Tiempo [15:0] $end
$var wire 1 & Busy $end

$scope module i1 $end
$var wire 1 ' gnd $end
$var wire 1 ( vcc $end
$var wire 1 ) unknown $end
$var tri1 1 * devclrn $end
$var tri1 1 + devpor $end
$var tri1 1 , devoe $end
$var wire 1 - Busy~output_o $end
$var wire 1 . Clock~input_o $end
$var wire 1 / Clock~inputclkctrl_outclk $end
$var wire 1 0 Pause~input_o $end
$var wire 1 1 Counter[0]~16_combout $end
$var wire 1 2 Tiempo[0]~input_o $end
$var wire 1 3 Reset~input_o $end
$var wire 1 4 Start~input_o $end
$var wire 1 5 Status~13_combout $end
$var wire 1 6 Status~11_combout $end
$var wire 1 7 Status~12_combout $end
$var wire 1 8 Status.PAUSE~q $end
$var wire 1 9 Status~7_combout $end
$var wire 1 : Status~8_combout $end
$var wire 1 ; Status~14_combout $end
$var wire 1 < Status.00~q $end
$var wire 1 = Counter[0]~18_combout $end
$var wire 1 > Counter[0]~19_combout $end
$var wire 1 ? Counter[0]~17 $end
$var wire 1 @ Counter[1]~20_combout $end
$var wire 1 A Tiempo[1]~input_o $end
$var wire 1 B Counter[1]~21 $end
$var wire 1 C Counter[2]~22_combout $end
$var wire 1 D Tiempo[2]~input_o $end
$var wire 1 E Counter[2]~23 $end
$var wire 1 F Counter[3]~24_combout $end
$var wire 1 G Tiempo[3]~input_o $end
$var wire 1 H Counter[3]~25 $end
$var wire 1 I Counter[4]~26_combout $end
$var wire 1 J Tiempo[4]~input_o $end
$var wire 1 K Counter[4]~27 $end
$var wire 1 L Counter[5]~28_combout $end
$var wire 1 M Tiempo[5]~input_o $end
$var wire 1 N Counter[5]~29 $end
$var wire 1 O Counter[6]~30_combout $end
$var wire 1 P Tiempo[6]~input_o $end
$var wire 1 Q Counter[6]~31 $end
$var wire 1 R Counter[7]~32_combout $end
$var wire 1 S Tiempo[7]~input_o $end
$var wire 1 T Counter[7]~33 $end
$var wire 1 U Counter[8]~34_combout $end
$var wire 1 V Tiempo[8]~input_o $end
$var wire 1 W Counter[8]~35 $end
$var wire 1 X Counter[9]~36_combout $end
$var wire 1 Y Tiempo[9]~input_o $end
$var wire 1 Z Counter[9]~37 $end
$var wire 1 [ Counter[10]~38_combout $end
$var wire 1 \ Tiempo[10]~input_o $end
$var wire 1 ] Counter[10]~39 $end
$var wire 1 ^ Counter[11]~40_combout $end
$var wire 1 _ Tiempo[11]~input_o $end
$var wire 1 ` Counter[11]~41 $end
$var wire 1 a Counter[12]~42_combout $end
$var wire 1 b Counter[12]~feeder_combout $end
$var wire 1 c Tiempo[12]~input_o $end
$var wire 1 d Counter[12]~43 $end
$var wire 1 e Counter[13]~44_combout $end
$var wire 1 f Tiempo[13]~input_o $end
$var wire 1 g Counter[13]~45 $end
$var wire 1 h Counter[14]~46_combout $end
$var wire 1 i Tiempo[14]~input_o $end
$var wire 1 j Counter[14]~47 $end
$var wire 1 k Counter[15]~48_combout $end
$var wire 1 l Tiempo[15]~input_o $end
$var wire 1 m Equal0~3_combout $end
$var wire 1 n Equal0~0_combout $end
$var wire 1 o Equal0~1_combout $end
$var wire 1 p Equal0~2_combout $end
$var wire 1 q Equal0~4_combout $end
$var wire 1 r Status~9_combout $end
$var wire 1 s Status~10_combout $end
$var wire 1 t Status.COUNT~q $end
$var wire 1 u Counter [15] $end
$var wire 1 v Counter [14] $end
$var wire 1 w Counter [13] $end
$var wire 1 x Counter [12] $end
$var wire 1 y Counter [11] $end
$var wire 1 z Counter [10] $end
$var wire 1 { Counter [9] $end
$var wire 1 | Counter [8] $end
$var wire 1 } Counter [7] $end
$var wire 1 ~ Counter [6] $end
$var wire 1 !! Counter [5] $end
$var wire 1 "! Counter [4] $end
$var wire 1 #! Counter [3] $end
$var wire 1 $! Counter [2] $end
$var wire 1 %! Counter [1] $end
$var wire 1 &! Counter [0] $end
$upscope $end
$upscope $end
$enddefinitions $end
#0
$dumpvars
0!
0"
0#
0$
b100000000 %
0&
0'
1(
x)
1*
1+
1,
0-
0.
0/
00
11
02
03
04
05
06
07
08
19
1:
0;
0<
1=
1>
0?
1@
0A
1B
1C
0D
0E
1F
0G
1H
1I
0J
0K
1L
0M
1N
1O
0P
0Q
1R
0S
1T
1U
1V
0W
1X
0Y
1Z
1[
0\
0]
1^
0_
1`
1a
1b
0c
0d
1e
0f
1g
1h
0i
0j
1k
0l
0m
0n
0o
0p
0q
0r
0s
0t
0&!
0%!
0$!
0#!
0"!
0!!
0~
0}
0|
0{
0z
0y
0x
0w
0v
0u
$end
#20000
1!
1.
1/
#40000
0!
0.
0/
#60000
1!
1.
1/
#80000
0!
0.
0/
#100000
1!
1.
1/
#120000
0!
0.
0/
#140000
1!
1.
1/
#160000
0!
0.
0/
#180000
1!
1.
1/
#200000
0!
0.
0/
#220000
1!
1.
1/
#240000
0!
0.
0/
#260000
1!
1.
1/
#280000
0!
0.
0/
#300000
1!
1.
1/
#320000
0!
0.
0/
#340000
1!
1.
1/
#360000
0!
0.
0/
#380000
1!
1.
1/
#400000
0!
0.
0/
#420000
1!
1.
1/
#440000
0!
0.
0/
#460000
1!
1.
1/
#480000
0!
0.
0/
#500000
1!
1.
1/
#520000
0!
0.
0/
#540000
1!
1.
1/
#560000
0!
0.
0/
#580000
1!
1.
1/
#600000
0!
0.
0/
#620000
1!
1.
1/
#640000
0!
0.
0/
#660000
1!
1.
1/
#680000
0!
0.
0/
#700000
1!
1.
1/
#720000
0!
0.
0/
#740000
1!
1.
1/
#760000
0!
0.
0/
#780000
1!
1.
1/
#800000
0!
0.
0/
#820000
1!
1.
1/
#840000
0!
0.
0/
#860000
1!
1.
1/
#880000
0!
0.
0/
#900000
1!
1.
1/
#920000
0!
0.
0/
#940000
1!
1.
1/
#960000
0!
0.
0/
#980000
1!
1.
1/
#1000000
0!
0.
0/
#1020000
1!
1.
1/
#1040000
0!
0.
0/
#1060000
1!
1.
1/
#1080000
0!
0.
0/
#1100000
1!
1.
1/
#1120000
0!
0.
0/
#1140000
1!
1.
1/
#1160000
0!
0.
0/
#1180000
1!
1.
1/
#1200000
0!
0.
0/
#1220000
1!
1.
1/
#1240000
0!
0.
0/
#1260000
1!
1.
1/
#1280000
0!
0.
0/
#1300000
1!
1.
1/
#1320000
0!
0.
0/
#1340000
1!
1.
1/
#1360000
0!
0.
0/
#1380000
1!
1.
1/
#1400000
0!
0.
0/
#1420000
1!
1.
1/
#1440000
0!
0.
0/
#1460000
1!
1.
1/
#1480000
0!
0.
0/
#1500000
1!
1.
1/
#1520000
0!
0.
0/
#1540000
1!
1.
1/
#1560000
0!
0.
0/
#1580000
1!
1.
1/
#1600000
0!
0.
0/
#1620000
1!
1.
1/
#1640000
0!
0.
0/
#1660000
1!
1.
1/
#1680000
0!
0.
0/
#1700000
1!
1.
1/
#1720000
0!
0.
0/
#1740000
1!
1.
1/
#1760000
0!
0.
0/
#1780000
1!
1.
1/
#1800000
0!
0.
0/
#1820000
1!
1.
1/
#1840000
0!
0.
0/
#1860000
1!
1.
1/
#1880000
0!
0.
0/
#1900000
1!
1.
1/
#1920000
0!
0.
0/
#1940000
1!
1.
1/
#1960000
0!
0.
0/
#1980000
1!
1.
1/
#2000000
0!
0.
0/
#2020000
1!
1.
1/
#2040000
0!
0.
0/
#2060000
1!
1.
1/
#2080000
0!
0.
0/
#2100000
1!
1.
1/
#2120000
0!
0.
0/
#2140000
1!
1.
1/
#2160000
0!
0.
0/
#2180000
1!
1.
1/
#2200000
0!
0.
0/
#2220000
1!
1.
1/
#2240000
0!
0.
0/
#2260000
1!
1.
1/
#2280000
0!
0.
0/
#2300000
1!
1.
1/
#2320000
0!
0.
0/
#2340000
1!
1.
1/
#2360000
0!
0.
0/
#2380000
1!
1.
1/
#2400000
0!
0.
0/
#2420000
1!
1.
1/
#2440000
0!
0.
0/
#2460000
1!
1.
1/
#2480000
0!
0.
0/
#2500000
1!
1.
1/
#2520000
0!
0.
0/
#2540000
1!
1.
1/
#2560000
0!
0.
0/
#2580000
1!
1.
1/
#2600000
0!
0.
0/
#2620000
1!
1.
1/
#2640000
0!
0.
0/
#2660000
1!
1.
1/
#2680000
0!
0.
0/
#2700000
1!
1.
1/
#2720000
0!
0.
0/
#2740000
1!
1.
1/
#2760000
0!
0.
0/
#2780000
1!
1.
1/
#2800000
0!
0.
0/
#2820000
1!
1.
1/
#2840000
0!
0.
0/
#2860000
1!
1.
1/
#2880000
0!
0.
0/
#2900000
1!
1.
1/
#2920000
0!
0.
0/
#2940000
1!
1.
1/
#2960000
0!
0.
0/
#2980000
1!
1.
1/
#3000000
0!
0.
0/
#3020000
1!
1.
1/
#3040000
0!
0.
0/
#3060000
1!
1.
1/
#3080000
0!
0.
0/
#3100000
1!
1.
1/
#3120000
0!
0.
0/
#3140000
1!
1.
1/
#3160000
0!
0.
0/
#3180000
1!
1.
1/
#3200000
0!
0.
0/
#3220000
1!
1.
1/
#3240000
0!
0.
0/
#3260000
1!
1.
1/
#3280000
0!
0.
0/
#3300000
1!
1.
1/
#3320000
0!
0.
0/
#3340000
1!
1.
1/
#3360000
0!
0.
0/
#3380000
1!
1.
1/
#3400000
0!
0.
0/
#3420000
1!
1.
1/
#3440000
0!
0.
0/
#3460000
1!
1.
1/
#3480000
0!
0.
0/
#3500000
1!
1.
1/
#3520000
0!
0.
0/
#3540000
1!
1.
1/
#3560000
0!
0.
0/
#3580000
1!
1.
1/
#3600000
0!
0.
0/
#3620000
1!
1.
1/
#3640000
0!
0.
0/
#3660000
1!
1.
1/
#3680000
0!
0.
0/
#3700000
1!
1.
1/
#3720000
0!
0.
0/
#3740000
1!
1.
1/
#3760000
0!
0.
0/
#3780000
1!
1.
1/
#3800000
0!
0.
0/
#3820000
1!
1.
1/
#3840000
1$
0!
14
0.
0/
0=
09
0:
1s
1;
#3860000
1!
1.
1/
1|
1<
1t
1-
1p
1W
1r
15
1&
0U
1q
0Z
0>
0X
0s
0;
0r
1:
05
1]
0[
1>
0`
1s
1;
0^
1d
0a
0g
0e
0b
1j
0h
0k
#3880000
0!
0.
0/
#3900000
1!
1.
1/
0|
1}
1~
1!!
1"!
1#!
1$!
1%!
1&!
0p
0W
1o
0T
1Q
0N
1K
1n
0H
1E
0B
1?
1U
0R
0O
0L
0I
0F
0C
0@
01
1Z
1W
1X
0U
1R
1O
1L
1I
1F
1C
1@
0]
0Z
1[
0X
1`
1]
1^
0[
0d
1a
0`
0^
1g
1d
0a
1e
1b
0j
0g
1h
0e
0b
1j
1k
0h
0k
#3920000
0!
0.
0/
#3940000
1!
1.
1/
0&!
0?
11
0@
#3960000
0!
0.
0/
#3980000
1!
1.
1/
0%!
1&!
1B
1?
1@
01
0B
0C
0@
1C
#4000000
0!
0.
0/
#4020000
1!
1.
1/
0&!
0?
11
1B
1@
0C
#4040000
0!
0.
0/
#4060000
1!
1.
1/
0$!
1%!
1&!
0E
0B
1?
1C
0@
01
1E
0F
0C
1@
1F
#4080000
0!
0.
0/
#4100000
1!
1.
1/
0&!
0?
11
0@
#4120000
0!
0.
0/
#4140000
1!
1.
1/
0%!
1&!
1B
1?
1@
01
0E
0B
1C
0@
1E
0F
0C
1F
#4160000
0!
0.
0/
#4180000
1!
1.
1/
0&!
0?
11
1B
1@
0E
1C
0F
#4200000
0!
0.
0/
#4220000
1!
1.
1/
0#!
1$!
1%!
1&!
1H
1E
0B
1?
1F
0C
0@
01
0H
0I
0F
1C
1@
1I
#4240000
0!
0.
0/
#4260000
1!
1.
1/
0&!
0?
11
0@
#4280000
0!
0.
0/
#4300000
1!
1.
1/
0%!
1&!
1B
1?
1@
01
0B
0C
0@
1C
#4320000
0!
0.
0/
#4340000
1!
1.
1/
0&!
0?
11
1B
1@
0C
#4360000
0!
0.
0/
#4380000
1!
1.
1/
0$!
1%!
1&!
0E
0B
1?
1C
0@
01
1H
1E
1F
0C
1@
0H
0I
0F
1I
#4400000
0!
0.
0/
#4420000
1!
1.
1/
0&!
0?
11
0@
#4440000
0!
0.
0/
#4460000
1!
1.
1/
0%!
1&!
1B
1?
1@
01
0E
0B
1C
0@
1H
1E
1F
0C
0H
0I
0F
1I
#4480000
0$
0!
04
0.
0/
#4500000
1!
1.
1/
0&!
0n
0?
11
1B
1@
0E
1C
1H
1F
0I
#4520000
0!
0.
0/
#4540000
1!
1.
1/
0"!
1#!
1$!
1%!
1&!
0K
1n
0H
1E
0B
1?
1I
0F
0C
0@
01
1K
0L
0I
1F
1C
1@
1L
#4560000
0!
0.
0/
#4580000
1!
1.
1/
0&!
0?
11
0@
#4600000
0!
0.
0/
#4620000
1!
1.
1/
0%!
1&!
1B
1?
1@
01
0B
0C
0@
1C
#4640000
0!
0.
0/
#4660000
1!
1.
1/
0&!
0?
11
1B
1@
0C
#4680000
0!
0.
0/
#4700000
1!
1.
1/
0$!
1%!
1&!
0E
0B
1?
1C
0@
01
1E
0F
0C
1@
1F
#4720000
0!
0.
0/
#4740000
1!
1.
1/
0&!
0?
11
0@
#4760000
0!
0.
0/
#4780000
1!
1.
1/
0%!
1&!
1B
1?
1@
01
0E
0B
1C
0@
1E
0F
0C
1F
#4800000
0!
0.
0/
#4820000
1!
1.
1/
0&!
0?
11
1B
1@
0E
1C
0F
#4840000
0!
0.
0/
#4860000
1!
1.
1/
0#!
1$!
1%!
1&!
1H
1E
0B
1?
1F
0C
0@
01
0K
0H
1I
0F
1C
1@
1K
0L
0I
1L
#4880000
0!
0.
0/
#4900000
1!
1.
1/
0&!
0?
11
0@
#4920000
0!
0.
0/
#4940000
1!
1.
1/
0%!
1&!
1B
1?
1@
01
0B
0C
0@
1C
#4960000
0!
0.
0/
#4980000
1!
1.
1/
0&!
0?
11
1B
1@
0C
#5000000
0!
0.
0/
#5020000
1!
1.
1/
0$!
1%!
1&!
0E
0B
1?
1C
0@
01
1H
1E
1F
0C
1@
0K
0H
1I
0F
1K
0L
0I
1L
#5040000
0!
0.
0/
#5060000
1!
1.
1/
0&!
0?
11
0@
#5080000
0!
0.
0/
#5100000
1!
1.
1/
0%!
1&!
1B
1?
1@
01
0E
0B
1C
0@
1H
1E
1F
0C
0K
0H
1I
0F
1K
0L
0I
1L
#5120000
0!
0.
0/
#5140000
1!
1.
1/
0&!
0n
0?
11
1B
1@
0E
1C
1H
1F
0K
1I
0L
#5160000
0!
0.
0/
#5180000
1!
1.
1/
0!!
1"!
1#!
1$!
1%!
1&!
1N
1K
1n
0H
1E
0B
1?
1L
0I
0F
0C
0@
01
0N
0O
0L
1I
1F
1C
1@
1O
#5200000
0!
0.
0/
#5220000
1!
1.
1/
0&!
0?
11
0@
#5240000
0!
0.
0/
#5260000
1!
1.
1/
0%!
1&!
1B
1?
1@
01
0B
0C
0@
1C
#5280000
0!
0.
0/
#5300000
1!
1.
1/
0&!
0?
11
1B
1@
0C
#5320000
0!
0.
0/
#5340000
1!
1.
1/
0$!
1%!
1&!
0E
0B
1?
1C
0@
01
1E
0F
0C
1@
1F
#5360000
0!
0.
0/
#5380000
1!
1.
1/
0&!
0?
11
0@
#5400000
0!
0.
0/
#5420000
1!
1.
1/
0%!
1&!
1B
1?
1@
01
0E
0B
1C
0@
1E
0F
0C
1F
#5440000
0!
0.
0/
#5460000
1!
1.
1/
0&!
0?
11
1B
1@
0E
1C
0F
#5480000
0!
0.
0/
#5500000
1!
1.
1/
0#!
1$!
1%!
1&!
1H
1E
0B
1?
1F
0C
0@
01
0H
0I
0F
1C
1@
1I
#5520000
0!
0.
0/
#5540000
1!
1.
1/
0&!
0?
11
0@
#5560000
0!
0.
0/
#5580000
1!
1.
1/
0%!
1&!
1B
1?
1@
01
0B
0C
0@
1C
#5600000
0!
0.
0/
#5620000
1!
1.
1/
0&!
0?
11
1B
1@
0C
#5640000
0!
0.
0/
#5660000
1!
1.
1/
0$!
1%!
1&!
0E
0B
1?
1C
0@
01
1H
1E
1F
0C
1@
0H
0I
0F
1I
#5680000
0!
0.
0/
#5700000
1!
1.
1/
0&!
0?
11
0@
#5720000
0!
0.
0/
#5740000
1!
1.
1/
0%!
1&!
1B
1?
1@
01
0E
0B
1C
0@
1H
1E
1F
0C
0H
0I
0F
1I
#5760000
0!
0.
0/
#5780000
1!
1.
1/
0&!
0n
0?
11
1B
1@
0E
1C
1H
1F
0I
#5800000
0!
0.
0/
#5820000
1!
1.
1/
0"!
1#!
1$!
1%!
1&!
0K
1n
0H
1E
0B
1?
1I
0F
0C
0@
01
1N
1K
1L
0I
1F
1C
1@
0N
0O
0L
1O
#5840000
0!
0.
0/
#5860000
1!
1.
1/
0&!
0?
11
0@
#5880000
0!
0.
0/
#5900000
1!
1.
1/
0%!
1&!
1B
1?
1@
01
0B
0C
0@
1C
#5920000
0!
0.
0/
#5940000
1!
1.
1/
0&!
0?
11
1B
1@
0C
#5960000
0!
0.
0/
#5980000
1!
1.
1/
0$!
1%!
1&!
0E
0B
1?
1C
0@
01
1E
0F
0C
1@
1F
#6000000
0!
0.
0/
#6020000
1!
1.
1/
0&!
0?
11
0@
#6040000
0!
0.
0/
#6060000
1!
1.
1/
0%!
1&!
1B
1?
1@
01
0E
0B
1C
0@
1E
0F
0C
1F
#6080000
0!
0.
0/
#6100000
1!
1.
1/
0&!
0?
11
1B
1@
0E
1C
0F
#6120000
0!
0.
0/
#6140000
1!
1.
1/
0#!
1$!
1%!
1&!
1H
1E
0B
1?
1F
0C
0@
01
0K
0H
1I
0F
1C
1@
1N
1K
1L
0I
0N
0O
0L
1O
#6160000
0!
0.
0/
#6180000
1!
1.
1/
0&!
0?
11
0@
#6200000
0!
0.
0/
#6220000
1!
1.
1/
0%!
1&!
1B
1?
1@
01
0B
0C
0@
1C
#6240000
0!
0.
0/
#6260000
1!
1.
1/
0&!
0?
11
1B
1@
0C
#6280000
0!
0.
0/
#6300000
1!
1.
1/
0$!
1%!
1&!
0E
0B
1?
1C
0@
01
1H
1E
1F
0C
1@
0K
0H
1I
0F
1N
1K
1L
0I
0N
0O
0L
1O
#6320000
0!
0.
0/
#6340000
1!
1.
1/
0&!
0?
11
0@
#6360000
0!
0.
0/
#6380000
1!
1.
1/
0%!
1&!
1B
1?
1@
01
0E
0B
1C
0@
1H
1E
1F
0C
0K
0H
1I
0F
1N
1K
1L
0I
0N
0O
0L
1O
#6400000
0!
0.
0/
#6420000
1!
1.
1/
0&!
0n
0?
11
1B
1@
0E
1C
1H
1F
0K
1I
1N
1L
0O
#6440000
0!
0.
0/
#6460000
1!
1.
1/
0~
1!!
1"!
1#!
1$!
1%!
1&!
0Q
0N
1K
1n
0H
1E
0B
1?
1O
0L
0I
0F
0C
0@
01
1Q
0R
0O
1L
1I
1F
1C
1@
1R
#6480000
0!
0.
0/
#6500000
1!
1.
1/
0&!
0?
11
0@
#6520000
0!
0.
0/
#6540000
1!
1.
1/
0%!
1&!
1B
1?
1@
01
0B
0C
0@
1C
#6560000
0!
0.
0/
#6580000
1!
1.
1/
0&!
0?
11
1B
1@
0C
#6600000
0!
0.
0/
#6620000
1!
1.
1/
0$!
1%!
1&!
0E
0B
1?
1C
0@
01
1E
0F
0C
1@
1F
#6640000
0!
0.
0/
#6660000
1!
1.
1/
0&!
0?
11
0@
#6680000
0!
0.
0/
#6700000
1!
1.
1/
0%!
1&!
1B
1?
1@
01
0E
0B
1C
0@
1E
0F
0C
1F
#6720000
0!
0.
0/
#6740000
1!
1.
1/
0&!
0?
11
1B
1@
0E
1C
0F
#6760000
0!
0.
0/
#6780000
1!
1.
1/
0#!
1$!
1%!
1&!
1H
1E
0B
1?
1F
0C
0@
01
0H
0I
0F
1C
1@
1I
#6800000
0!
0.
0/
#6820000
1!
1.
1/
0&!
0?
11
0@
#6840000
0!
0.
0/
#6860000
1!
1.
1/
0%!
1&!
1B
1?
1@
01
0B
0C
0@
1C
#6880000
0!
0.
0/
#6900000
1!
1.
1/
0&!
0?
11
1B
1@
0C
#6920000
0!
0.
0/
#6940000
1!
1.
1/
0$!
1%!
1&!
0E
0B
1?
1C
0@
01
1H
1E
1F
0C
1@
0H
0I
0F
1I
#6960000
0!
0.
0/
#6980000
1!
1.
1/
0&!
0?
11
0@
#7000000
0!
0.
0/
#7020000
1!
1.
1/
0%!
1&!
1B
1?
1@
01
0E
0B
1C
0@
1H
1E
1F
0C
0H
0I
0F
1I
#7040000
0!
0.
0/
#7060000
1!
1.
1/
0&!
0n
0?
11
1B
1@
0E
1C
1H
1F
0I
#7080000
0!
0.
0/
#7100000
1!
1.
1/
0"!
1#!
1$!
1%!
1&!
0K
1n
0H
1E
0B
1?
1I
0F
0C
0@
01
1K
0L
0I
1F
1C
1@
1L
#7120000
0!
0.
0/
#7140000
1!
1.
1/
0&!
0?
11
0@
#7160000
0!
0.
0/
#7180000
1!
1.
1/
0%!
1&!
1B
1?
1@
01
0B
0C
0@
1C
#7200000
0!
0.
0/
#7220000
1!
1.
1/
0&!
0?
11
1B
1@
0C
#7240000
0!
0.
0/
#7260000
1!
1.
1/
0$!
1%!
1&!
0E
0B
1?
1C
0@
01
1E
0F
0C
1@
1F
#7280000
0!
0.
0/
#7300000
1!
1.
1/
0&!
0?
11
0@
#7320000
0!
0.
0/
#7340000
1!
1.
1/
0%!
1&!
1B
1?
1@
01
0E
0B
1C
0@
1E
0F
0C
1F
#7360000
0!
0.
0/
#7380000
1!
1.
1/
0&!
0?
11
1B
1@
0E
1C
0F
#7400000
0!
0.
0/
#7420000
1!
1.
1/
0#!
1$!
1%!
1&!
1H
1E
0B
1?
1F
0C
0@
01
0K
0H
1I
0F
1C
1@
1K
0L
0I
1L
#7440000
0!
0.
0/
#7460000
1!
1.
1/
0&!
0?
11
0@
#7480000
0!
0.
0/
#7500000
1!
1.
1/
0%!
1&!
1B
1?
1@
01
0B
0C
0@
1C
#7520000
0!
0.
0/
#7540000
1!
1.
1/
0&!
0?
11
1B
1@
0C
#7560000
0!
0.
0/
#7580000
1!
1.
1/
0$!
1%!
1&!
0E
0B
1?
1C
0@
01
1H
1E
1F
0C
1@
0K
0H
1I
0F
1K
0L
0I
1L
#7600000
0!
0.
0/
#7620000
1!
1.
1/
0&!
0?
11
0@
#7640000
0!
0.
0/
#7660000
1!
1.
1/
0%!
1&!
1B
1?
1@
01
0E
0B
1C
0@
1H
1E
1F
0C
0K
0H
1I
0F
1K
0L
0I
1L
#7680000
0!
0.
0/
#7700000
1!
1.
1/
0&!
0n
0?
11
1B
1@
0E
1C
1H
1F
0K
1I
0L
#7720000
0!
0.
0/
#7740000
1!
1.
1/
0!!
1"!
1#!
1$!
1%!
1&!
1N
1K
1n
0H
1E
0B
1?
1L
0I
0F
0C
0@
01
0Q
0N
1O
0L
1I
1F
1C
1@
1Q
0R
0O
1R
#7760000
0!
0.
0/
#7780000
1!
1.
1/
0&!
0?
11
0@
#7800000
0!
0.
0/
#7820000
1!
1.
1/
0%!
1&!
1B
1?
1@
01
0B
0C
0@
1C
#7840000
0!
0.
0/
#7860000
1!
1.
1/
0&!
0?
11
1B
1@
0C
#7880000
0!
0.
0/
#7900000
1!
1.
1/
0$!
1%!
1&!
0E
0B
1?
1C
0@
01
1E
0F
0C
1@
1F
#7920000
0!
0.
0/
#7940000
1!
1.
1/
0&!
0?
11
0@
#7960000
0!
0.
0/
#7980000
1!
1.
1/
0%!
1&!
1B
1?
1@
01
0E
0B
1C
0@
1E
0F
0C
1F
#8000000
0!
0.
0/
#8020000
1!
1.
1/
0&!
0?
11
1B
1@
0E
1C
0F
#8040000
0!
0.
0/
#8060000
1!
1.
1/
0#!
1$!
1%!
1&!
1H
1E
0B
1?
1F
0C
0@
01
0H
0I
0F
1C
1@
1I
#8080000
0!
0.
0/
#8100000
1!
1.
1/
0&!
0?
11
0@
#8120000
0!
0.
0/
#8140000
1!
1.
1/
0%!
1&!
1B
1?
1@
01
0B
0C
0@
1C
#8160000
0!
0.
0/
#8180000
1!
1.
1/
0&!
0?
11
1B
1@
0C
#8200000
0!
0.
0/
#8220000
1!
1.
1/
0$!
1%!
1&!
0E
0B
1?
1C
0@
01
1H
1E
1F
0C
1@
0H
0I
0F
1I
#8240000
0!
0.
0/
#8260000
1!
1.
1/
0&!
0?
11
0@
#8280000
0!
0.
0/
#8300000
1!
1.
1/
0%!
1&!
1B
1?
1@
01
0E
0B
1C
0@
1H
1E
1F
0C
0H
0I
0F
1I
#8320000
0!
0.
0/
#8340000
1!
1.
1/
0&!
0n
0?
11
1B
1@
0E
1C
1H
1F
0I
#8360000
0!
0.
0/
#8380000
1!
1.
1/
0"!
1#!
1$!
1%!
1&!
0K
1n
0H
1E
0B
1?
1I
0F
0C
0@
01
1N
1K
1L
0I
1F
1C
1@
0Q
0N
1O
0L
1Q
0R
0O
1R
#8400000
0!
0.
0/
#8420000
1!
1.
1/
0&!
0?
11
0@
#8440000
0!
0.
0/
#8460000
1!
1.
1/
0%!
1&!
1B
1?
1@
01
0B
0C
0@
1C
#8480000
0!
0.
0/
#8500000
1!
1.
1/
0&!
0?
11
1B
1@
0C
#8520000
0!
0.
0/
#8540000
1!
1.
1/
0$!
1%!
1&!
0E
0B
1?
1C
0@
01
1E
0F
0C
1@
1F
#8560000
0!
0.
0/
#8580000
1!
1.
1/
0&!
0?
11
0@
#8600000
0!
0.
0/
#8620000
1!
1.
1/
0%!
1&!
1B
1?
1@
01
0E
0B
1C
0@
1E
0F
0C
1F
#8640000
0!
0.
0/
#8660000
1!
1.
1/
0&!
0?
11
1B
1@
0E
1C
0F
#8680000
0!
0.
0/
#8700000
1!
1.
1/
0#!
1$!
1%!
1&!
1H
1E
0B
1?
1F
0C
0@
01
0K
0H
1I
0F
1C
1@
1N
1K
1L
0I
0Q
0N
1O
0L
1Q
0R
0O
1R
#8720000
0!
0.
0/
#8740000
1!
1.
1/
0&!
0?
11
0@
#8760000
0!
0.
0/
#8780000
1!
1.
1/
0%!
1&!
1B
1?
1@
01
0B
0C
0@
1C
#8800000
0!
0.
0/
#8820000
1!
1.
1/
0&!
0?
11
1B
1@
0C
#8840000
0!
0.
0/
#8860000
1!
1.
1/
0$!
1%!
1&!
0E
0B
1?
1C
0@
01
1H
1E
1F
0C
1@
0K
0H
1I
0F
1N
1K
1L
0I
0Q
0N
1O
0L
1Q
0R
0O
1R
#8880000
0!
0.
0/
#8900000
1!
1.
1/
0&!
0?
11
0@
#8920000
0!
0.
0/
#8940000
1!
1.
1/
0%!
1&!
1B
1?
1@
01
0E
0B
1C
0@
1H
1E
1F
0C
0K
0H
1I
0F
1N
1K
1L
0I
0Q
0N
1O
0L
1Q
0R
0O
1R
#8960000
0!
0.
0/
#8980000
1!
1.
1/
0&!
0n
0?
11
1B
1@
0E
1C
1H
1F
0K
1I
1N
1L
0Q
1O
0R
#9000000
0!
0.
0/
#9020000
1!
1.
1/
0}
1~
1!!
1"!
1#!
1$!
1%!
1&!
1T
1Q
0N
1K
1n
0H
1E
0B
1?
1R
0O
0L
0I
0F
0C
0@
01
0W
0T
1U
0R
1O
1L
1I
1F
1C
1@
1Z
1W
1X
0U
0]
0Z
1[
0X
1`
1]
1^
0[
0d
1a
0`
0^
1g
1d
0a
1e
1b
0j
0g
1h
0e
0b
1j
1k
0h
0k
#9040000
0!
0.
0/
#9060000
1!
1.
1/
0&!
0?
11
0@
#9080000
0!
0.
0/
#9100000
1!
1.
1/
0%!
1&!
1B
1?
1@
01
0B
0C
0@
1C
#9120000
0!
0.
0/
#9140000
1!
1.
1/
0&!
0?
11
1B
1@
0C
#9160000
0!
0.
0/
#9180000
1!
1.
1/
0$!
1%!
1&!
0E
0B
1?
1C
0@
01
1E
0F
0C
1@
1F
#9200000
0!
0.
0/
#9220000
1!
1.
1/
0&!
0?
11
0@
#9240000
0!
0.
0/
#9260000
1!
1.
1/
0%!
1&!
1B
1?
1@
01
0E
0B
1C
0@
1E
0F
0C
1F
#9280000
0!
0.
0/
#9300000
1!
1.
1/
0&!
0?
11
1B
1@
0E
1C
0F
#9320000
0!
0.
0/
#9340000
1!
1.
1/
0#!
1$!
1%!
1&!
1H
1E
0B
1?
1F
0C
0@
01
0H
0I
0F
1C
1@
1I
#9360000
0!
0.
0/
#9380000
1!
1.
1/
0&!
0?
11
0@
#9400000
0!
0.
0/
#9420000
1!
1.
1/
0%!
1&!
1B
1?
1@
01
0B
0C
0@
1C
#9440000
0!
0.
0/
#9460000
1!
1.
1/
0&!
0?
11
1B
1@
0C
#9480000
0!
0.
0/
#9500000
1!
1.
1/
0$!
1%!
1&!
0E
0B
1?
1C
0@
01
1H
1E
1F
0C
1@
0H
0I
0F
1I
#9520000
0!
0.
0/
#9540000
1!
1.
1/
0&!
0?
11
0@
#9560000
0!
0.
0/
#9580000
1!
1.
1/
0%!
1&!
1B
1?
1@
01
0E
0B
1C
0@
1H
1E
1F
0C
0H
0I
0F
1I
#9600000
1"
0!
10
0.
0/
1r
0:
16
0>
0s
17
#9620000
1!
1.
1/
18
0t
0-
19
0r
06
0&
1:
1s
07
0s
17
#9640000
0!
0.
0/
#9660000
1!
1.
1/
#9680000
0!
0.
0/
#9700000
1!
1.
1/
#9720000
0!
0.
0/
#9740000
1!
1.
1/
#9760000
0!
0.
0/
#9780000
1!
1.
1/
#9800000
0!
0.
0/
#9820000
1!
1.
1/
#9840000
0!
0.
0/
#9860000
1!
1.
1/
#9880000
0!
0.
0/
#9900000
1!
1.
1/
#9920000
0!
0.
0/
#9940000
1!
1.
1/
